@relation ThresholdCurve

@attribute Instance_number numeric
@attribute 'True Positives' numeric
@attribute 'False Negatives' numeric
@attribute 'False Positives' numeric
@attribute 'True Negatives' numeric
@attribute 'False Positive Rate' numeric
@attribute 'True Positive Rate' numeric
@attribute Precision numeric
@attribute Recall numeric
@attribute Fallout numeric
@attribute FMeasure numeric
@attribute 'Sample Size' numeric
@attribute Lift numeric
@attribute Threshold numeric

@data
0,116,0,297,0,1,1,0.280872,1,0.719128,0.438563,1,1,0
1,116,0,296,1,0.996633,1,0.281553,1,0.718447,0.439394,0.997579,1.002427,0
2,115,1,296,1,0.996633,0.991379,0.279805,0.991379,0.720195,0.436433,0.995157,0.996204,0
3,115,1,295,2,0.993266,0.991379,0.280488,0.991379,0.719512,0.437262,0.992736,0.998633,0
4,115,1,294,3,0.989899,0.991379,0.281174,0.991379,0.718826,0.438095,0.990315,1.001075,0
5,115,1,293,4,0.986532,0.991379,0.281863,0.991379,0.718137,0.438931,0.987893,1.003529,0
6,115,1,292,5,0.983165,0.991379,0.282555,0.991379,0.717445,0.439771,0.985472,1.005994,0
7,115,1,291,6,0.979798,0.991379,0.283251,0.991379,0.716749,0.440613,0.983051,1.008472,0
8,115,1,290,7,0.976431,0.991379,0.283951,0.991379,0.716049,0.441459,0.98063,1.010962,0
9,115,1,289,8,0.973064,0.991379,0.284653,0.991379,0.715347,0.442308,0.978208,1.013464,0
10,115,1,288,9,0.969697,0.991379,0.28536,0.991379,0.71464,0.44316,0.975787,1.015979,0
11,115,1,287,10,0.96633,0.991379,0.28607,0.991379,0.71393,0.444015,0.973366,1.018507,0
12,115,1,286,11,0.962963,0.991379,0.286783,0.991379,0.713217,0.444874,0.970944,1.021047,0
13,115,1,285,12,0.959596,0.991379,0.2875,0.991379,0.7125,0.445736,0.968523,1.023599,0
14,115,1,284,13,0.956229,0.991379,0.288221,0.991379,0.711779,0.446602,0.966102,1.026165,0
15,115,1,283,14,0.952862,0.991379,0.288945,0.991379,0.711055,0.447471,0.96368,1.028743,0
16,115,1,282,15,0.949495,0.991379,0.289673,0.991379,0.710327,0.448343,0.961259,1.031334,0
17,115,1,281,16,0.946128,0.991379,0.290404,0.991379,0.709596,0.449219,0.958838,1.033939,0
18,115,1,280,17,0.942761,0.991379,0.291139,0.991379,0.708861,0.450098,0.956416,1.036556,0
19,115,1,279,18,0.939394,0.991379,0.291878,0.991379,0.708122,0.45098,0.953995,1.039187,0
20,115,1,278,19,0.936027,0.991379,0.292621,0.991379,0.707379,0.451866,0.951574,1.041831,0
21,115,1,277,20,0.93266,0.991379,0.293367,0.991379,0.706633,0.452756,0.949153,1.044489,0
22,115,1,276,21,0.929293,0.991379,0.294118,0.991379,0.705882,0.453649,0.946731,1.04716,0
23,115,1,275,22,0.925926,0.991379,0.294872,0.991379,0.705128,0.454545,0.94431,1.049845,0
24,115,1,274,23,0.922559,0.991379,0.29563,0.991379,0.70437,0.455446,0.941889,1.052544,0
25,115,1,273,24,0.919192,0.991379,0.296392,0.991379,0.703608,0.456349,0.939467,1.055257,0
26,115,1,272,25,0.915825,0.991379,0.297158,0.991379,0.702842,0.457256,0.937046,1.057984,0
27,115,1,271,26,0.912458,0.991379,0.297927,0.991379,0.702073,0.458167,0.934625,1.060724,0
28,115,1,270,27,0.909091,0.991379,0.298701,0.991379,0.701299,0.459082,0.932203,1.06348,0
29,115,1,269,28,0.905724,0.991379,0.299479,0.991379,0.700521,0.46,0.929782,1.066249,0
30,115,1,268,29,0.902357,0.991379,0.300261,0.991379,0.699739,0.460922,0.927361,1.069033,0
31,114,2,268,29,0.902357,0.982759,0.298429,0.982759,0.701571,0.457831,0.924939,1.062511,0
32,114,2,267,30,0.89899,0.982759,0.299213,0.982759,0.700787,0.458753,0.922518,1.0653,0
33,114,2,266,31,0.895623,0.982759,0.3,0.982759,0.7,0.459677,0.920097,1.068103,0
34,114,2,265,32,0.892256,0.982759,0.300792,0.982759,0.699208,0.460606,0.917676,1.070922,0
35,114,2,264,33,0.888889,0.982759,0.301587,0.982759,0.698413,0.461538,0.915254,1.073755,0
36,114,2,263,34,0.885522,0.982759,0.302387,0.982759,0.697613,0.462475,0.912833,1.076603,0
37,114,2,262,35,0.882155,0.982759,0.303191,0.982759,0.696809,0.463415,0.910412,1.079466,0
38,114,2,261,36,0.878788,0.982759,0.304,0.982759,0.696,0.464358,0.90799,1.082345,0
39,114,2,260,37,0.875421,0.982759,0.304813,0.982759,0.695187,0.465306,0.905569,1.085239,0
40,114,2,259,38,0.872054,0.982759,0.30563,0.982759,0.69437,0.466258,0.903148,1.088148,0
41,114,2,258,39,0.868687,0.982759,0.306452,0.982759,0.693548,0.467213,0.900726,1.091073,0
42,114,2,257,40,0.86532,0.982759,0.307278,0.982759,0.692722,0.468172,0.898305,1.094014,0
43,114,2,256,41,0.861953,0.982759,0.308108,0.982759,0.691892,0.469136,0.895884,1.096971,0
44,114,2,255,42,0.858586,0.982759,0.308943,0.982759,0.691057,0.470103,0.893462,1.099944,0
45,114,2,254,43,0.855219,0.982759,0.309783,0.982759,0.690217,0.471074,0.891041,1.102933,0
46,114,2,253,44,0.851852,0.982759,0.310627,0.982759,0.689373,0.47205,0.88862,1.105938,0
47,114,2,252,45,0.848485,0.982759,0.311475,0.982759,0.688525,0.473029,0.886199,1.10896,0
48,114,2,251,46,0.845118,0.982759,0.312329,0.982759,0.687671,0.474012,0.883777,1.111998,0
49,114,2,250,47,0.841751,0.982759,0.313187,0.982759,0.686813,0.475,0.881356,1.115053,0
50,114,2,249,48,0.838384,0.982759,0.31405,0.982759,0.68595,0.475992,0.878935,1.118125,0
51,114,2,248,49,0.835017,0.982759,0.314917,0.982759,0.685083,0.476987,0.876513,1.121214,0
52,114,2,247,50,0.83165,0.982759,0.315789,0.982759,0.684211,0.477987,0.874092,1.124319,0
53,114,2,246,51,0.828283,0.982759,0.316667,0.982759,0.683333,0.478992,0.871671,1.127443,0
54,114,2,245,52,0.824916,0.982759,0.317549,0.982759,0.682451,0.48,0.869249,1.130583,0
55,114,2,244,53,0.821549,0.982759,0.318436,0.982759,0.681564,0.481013,0.866828,1.133741,0
56,114,2,243,54,0.818182,0.982759,0.319328,0.982759,0.680672,0.48203,0.864407,1.136917,0
57,114,2,242,55,0.814815,0.982759,0.320225,0.982759,0.679775,0.483051,0.861985,1.14011,0
58,114,2,241,56,0.811448,0.982759,0.321127,0.982759,0.678873,0.484076,0.859564,1.143322,0
59,114,2,240,57,0.808081,0.982759,0.322034,0.982759,0.677966,0.485106,0.857143,1.146552,0
60,114,2,239,58,0.804714,0.982759,0.322946,0.982759,0.677054,0.486141,0.854722,1.1498,0
61,114,2,238,59,0.801347,0.982759,0.323864,0.982759,0.676136,0.487179,0.8523,1.153066,0
62,114,2,237,60,0.79798,0.982759,0.324786,0.982759,0.675214,0.488223,0.849879,1.156351,0
63,114,2,236,61,0.794613,0.982759,0.325714,0.982759,0.674286,0.48927,0.847458,1.159655,0
64,114,2,235,62,0.791246,0.982759,0.326648,0.982759,0.673352,0.490323,0.845036,1.162978,0
65,114,2,234,63,0.787879,0.982759,0.327586,0.982759,0.672414,0.491379,0.842615,1.16632,0
66,114,2,233,64,0.784512,0.982759,0.32853,0.982759,0.67147,0.492441,0.840194,1.169681,0
67,114,2,232,65,0.781145,0.982759,0.32948,0.982759,0.67052,0.493506,0.837772,1.173062,0
68,114,2,231,66,0.777778,0.982759,0.330435,0.982759,0.669565,0.494577,0.835351,1.176462,0
69,114,2,230,67,0.774411,0.982759,0.331395,0.982759,0.668605,0.495652,0.83293,1.179882,0
70,114,2,229,68,0.771044,0.982759,0.332362,0.982759,0.667638,0.496732,0.830508,1.183322,0
71,114,2,228,69,0.767677,0.982759,0.333333,0.982759,0.666667,0.497817,0.828087,1.186782,0
72,114,2,227,70,0.76431,0.982759,0.334311,0.982759,0.665689,0.498906,0.825666,1.190262,0
73,114,2,226,71,0.760943,0.982759,0.335294,0.982759,0.664706,0.5,0.823245,1.193763,0
74,114,2,225,72,0.757576,0.982759,0.336283,0.982759,0.663717,0.501099,0.820823,1.197284,0
75,114,2,224,73,0.754209,0.982759,0.337278,0.982759,0.662722,0.502203,0.818402,1.200826,0
76,114,2,223,74,0.750842,0.982759,0.338279,0.982759,0.661721,0.503311,0.815981,1.20439,0
77,114,2,222,75,0.747475,0.982759,0.339286,0.982759,0.660714,0.504425,0.813559,1.207974,0.000001
78,114,2,221,76,0.744108,0.982759,0.340299,0.982759,0.659701,0.505543,0.811138,1.21158,0.000001
79,114,2,220,77,0.740741,0.982759,0.341317,0.982759,0.658683,0.506667,0.808717,1.215208,0.000001
80,114,2,219,78,0.737374,0.982759,0.342342,0.982759,0.657658,0.507795,0.806295,1.218857,0.000001
81,114,2,218,79,0.734007,0.982759,0.343373,0.982759,0.656627,0.508929,0.803874,1.222528,0.000001
82,114,2,217,80,0.73064,0.982759,0.344411,0.982759,0.655589,0.510067,0.801453,1.226221,0.000001
83,114,2,216,81,0.727273,0.982759,0.345455,0.982759,0.654545,0.511211,0.799031,1.229937,0.000001
84,114,2,215,82,0.723906,0.982759,0.346505,0.982759,0.653495,0.51236,0.79661,1.233676,0.000001
85,114,2,214,83,0.720539,0.982759,0.347561,0.982759,0.652439,0.513514,0.794189,1.237437,0.000001
86,114,2,213,84,0.717172,0.982759,0.348624,0.982759,0.651376,0.514673,0.791768,1.241221,0.000002
87,114,2,212,85,0.713805,0.982759,0.349693,0.982759,0.650307,0.515837,0.789346,1.245029,0.000002
88,114,2,211,86,0.710438,0.982759,0.350769,0.982759,0.649231,0.517007,0.786925,1.248859,0.000002
89,114,2,210,87,0.707071,0.982759,0.351852,0.982759,0.648148,0.518182,0.784504,1.252714,0.000002
90,114,2,209,88,0.703704,0.982759,0.352941,0.982759,0.647059,0.519362,0.782082,1.256592,0.000002
91,114,2,208,89,0.700337,0.982759,0.354037,0.982759,0.645963,0.520548,0.779661,1.260495,0.000002
92,114,2,207,90,0.69697,0.982759,0.35514,0.982759,0.64486,0.521739,0.77724,1.264422,0.000003
93,114,2,206,91,0.693603,0.982759,0.35625,0.982759,0.64375,0.522936,0.774818,1.268373,0.000003
94,114,2,205,92,0.690236,0.982759,0.357367,0.982759,0.642633,0.524138,0.772397,1.272349,0.000004
95,114,2,204,93,0.686869,0.982759,0.358491,0.982759,0.641509,0.525346,0.769976,1.27635,0.000004
96,114,2,203,94,0.683502,0.982759,0.359621,0.982759,0.640379,0.526559,0.767554,1.280376,0.000005
97,114,2,202,95,0.680135,0.982759,0.360759,0.982759,0.639241,0.527778,0.765133,1.284428,0.000005
98,114,2,201,96,0.676768,0.982759,0.361905,0.982759,0.638095,0.529002,0.762712,1.288506,0.000005
99,114,2,200,97,0.673401,0.982759,0.363057,0.982759,0.636943,0.530233,0.760291,1.292609,0.000006
100,114,2,199,98,0.670034,0.982759,0.364217,0.982759,0.635783,0.531469,0.757869,1.296739,0.000007
101,114,2,198,99,0.666667,0.982759,0.365385,0.982759,0.634615,0.53271,0.755448,1.300895,0.000007
102,114,2,197,100,0.6633,0.982759,0.366559,0.982759,0.633441,0.533958,0.753027,1.305078,0.000007
103,114,2,196,101,0.659933,0.982759,0.367742,0.982759,0.632258,0.535211,0.750605,1.309288,0.000007
104,114,2,195,102,0.656566,0.982759,0.368932,0.982759,0.631068,0.536471,0.748184,1.313525,0.000008
105,114,2,194,103,0.653199,0.982759,0.37013,0.982759,0.62987,0.537736,0.745763,1.31779,0.000008
106,114,2,193,104,0.649832,0.982759,0.371336,0.982759,0.628664,0.539007,0.743341,1.322082,0.00001
107,114,2,192,105,0.646465,0.982759,0.372549,0.982759,0.627451,0.540284,0.74092,1.326403,0.00001
108,114,2,191,106,0.643098,0.982759,0.37377,0.982759,0.62623,0.541568,0.738499,1.330752,0.000011
109,114,2,190,107,0.639731,0.982759,0.375,0.982759,0.625,0.542857,0.736077,1.335129,0.000012
110,114,2,189,108,0.636364,0.982759,0.376238,0.982759,0.623762,0.544153,0.733656,1.339536,0.000014
111,114,2,188,109,0.632997,0.982759,0.377483,0.982759,0.622517,0.545455,0.731235,1.343971,0.000015
112,114,2,187,110,0.62963,0.982759,0.378738,0.982759,0.621262,0.546763,0.728814,1.348436,0.000016
113,114,2,186,111,0.626263,0.982759,0.38,0.982759,0.62,0.548077,0.726392,1.352931,0.000017
114,114,2,185,112,0.622896,0.982759,0.381271,0.982759,0.618729,0.549398,0.723971,1.357456,0.000017
115,114,2,184,113,0.619529,0.982759,0.38255,0.982759,0.61745,0.550725,0.72155,1.362011,0.000021
116,114,2,183,114,0.616162,0.982759,0.383838,0.982759,0.616162,0.552058,0.719128,1.366597,0.000022
117,114,2,182,115,0.612795,0.982759,0.385135,0.982759,0.614865,0.553398,0.716707,1.371214,0.000025
118,114,2,181,116,0.609428,0.982759,0.386441,0.982759,0.613559,0.554745,0.714286,1.375862,0.000025
119,114,2,180,117,0.606061,0.982759,0.387755,0.982759,0.612245,0.556098,0.711864,1.380542,0.000029
120,114,2,179,118,0.602694,0.982759,0.389078,0.982759,0.610922,0.557457,0.709443,1.385254,0.000037
121,113,3,179,118,0.602694,0.974138,0.386986,0.974138,0.613014,0.553922,0.707022,1.377805,0.000038
122,113,3,178,119,0.599327,0.974138,0.388316,0.974138,0.611684,0.555283,0.7046,1.382539,0.00004
123,113,3,177,120,0.59596,0.974138,0.389655,0.974138,0.610345,0.55665,0.702179,1.387307,0.000041
124,113,3,176,121,0.592593,0.974138,0.391003,0.974138,0.608997,0.558025,0.699758,1.392107,0.000049
125,113,3,175,122,0.589226,0.974138,0.392361,0.974138,0.607639,0.559406,0.697337,1.396941,0.000061
126,113,3,174,123,0.585859,0.974138,0.393728,0.974138,0.606272,0.560794,0.694915,1.401808,0.000062
127,113,3,173,124,0.582492,0.974138,0.395105,0.974138,0.604895,0.562189,0.692494,1.40671,0.000065
128,113,3,172,125,0.579125,0.974138,0.396491,0.974138,0.603509,0.563591,0.690073,1.411645,0.000068
129,112,4,172,125,0.579125,0.965517,0.394366,0.965517,0.605634,0.56,0.687651,1.40408,0.000068
130,112,4,171,126,0.575758,0.965517,0.39576,0.965517,0.60424,0.561404,0.68523,1.409041,0.000069
131,112,4,170,127,0.572391,0.965517,0.397163,0.965517,0.602837,0.562814,0.682809,1.414038,0.000072
132,112,4,169,128,0.569024,0.965517,0.398577,0.965517,0.601423,0.564232,0.680387,1.41907,0.000073
133,112,4,168,129,0.565657,0.965517,0.4,0.965517,0.6,0.565657,0.677966,1.424138,0.000077
134,112,4,167,130,0.56229,0.965517,0.401434,0.965517,0.598566,0.567089,0.675545,1.429242,0.000115
135,112,4,166,131,0.558923,0.965517,0.402878,0.965517,0.597122,0.568528,0.673123,1.434384,0.000131
136,112,4,165,132,0.555556,0.965517,0.404332,0.965517,0.595668,0.569975,0.670702,1.439562,0.000132
137,112,4,164,133,0.552189,0.965517,0.405797,0.965517,0.594203,0.571429,0.668281,1.444778,0.000141
138,111,5,164,133,0.552189,0.956897,0.403636,0.956897,0.596364,0.567775,0.66586,1.437085,0.000158
139,111,5,163,134,0.548822,0.956897,0.405109,0.956897,0.594891,0.569231,0.663438,1.442329,0.00017
140,111,5,162,135,0.545455,0.956897,0.406593,0.956897,0.593407,0.570694,0.661017,1.447613,0.000191
141,111,5,161,136,0.542088,0.956897,0.408088,0.956897,0.591912,0.572165,0.658596,1.452935,0.000308
142,111,5,160,137,0.538721,0.956897,0.409594,0.956897,0.590406,0.573643,0.656174,1.458296,0.000311
143,111,5,159,138,0.535354,0.956897,0.411111,0.956897,0.588889,0.57513,0.653753,1.463697,0.000323
144,111,5,158,139,0.531987,0.956897,0.412639,0.956897,0.587361,0.576623,0.651332,1.469139,0.000334
145,111,5,157,140,0.52862,0.956897,0.414179,0.956897,0.585821,0.578125,0.64891,1.47462,0.00034
146,111,5,156,141,0.525253,0.956897,0.41573,0.956897,0.58427,0.579634,0.646489,1.480143,0.000365
147,111,5,155,142,0.521886,0.956897,0.417293,0.956897,0.582707,0.581152,0.644068,1.485708,0.000372
148,111,5,154,143,0.518519,0.956897,0.418868,0.956897,0.581132,0.582677,0.641646,1.491314,0.000374
149,111,5,153,144,0.515152,0.956897,0.420455,0.956897,0.579545,0.584211,0.639225,1.496963,0.000397
150,111,5,152,145,0.511785,0.956897,0.422053,0.956897,0.577947,0.585752,0.636804,1.502655,0.000416
151,111,5,151,146,0.508418,0.956897,0.423664,0.956897,0.576336,0.587302,0.634383,1.50839,0.000453
152,111,5,150,147,0.505051,0.956897,0.425287,0.956897,0.574713,0.588859,0.631961,1.51417,0.000472
153,111,5,149,148,0.501684,0.956897,0.426923,0.956897,0.573077,0.590426,0.62954,1.519993,0.00053
154,111,5,148,149,0.498316,0.956897,0.428571,0.956897,0.571429,0.592,0.627119,1.525862,0.000538
155,111,5,147,150,0.494949,0.956897,0.430233,0.956897,0.569767,0.593583,0.624697,1.531776,0.000546
156,111,5,146,151,0.491582,0.956897,0.431907,0.956897,0.568093,0.595174,0.622276,1.537736,0.000572
157,111,5,145,152,0.488215,0.956897,0.433594,0.956897,0.566406,0.596774,0.619855,1.543743,0.000588
158,111,5,144,153,0.484848,0.956897,0.435294,0.956897,0.564706,0.598383,0.617433,1.549797,0.000597
159,111,5,143,154,0.481481,0.956897,0.437008,0.956897,0.562992,0.6,0.615012,1.555899,0.000697
160,111,5,142,155,0.478114,0.956897,0.438735,0.956897,0.561265,0.601626,0.612591,1.562049,0.000822
161,111,5,141,156,0.474747,0.956897,0.440476,0.956897,0.559524,0.603261,0.610169,1.568247,0.000835
162,111,5,140,157,0.47138,0.956897,0.442231,0.956897,0.557769,0.604905,0.607748,1.574495,0.000838
163,111,5,139,158,0.468013,0.956897,0.444,0.956897,0.556,0.606557,0.605327,1.580793,0.00089
164,111,5,138,159,0.464646,0.956897,0.445783,0.956897,0.554217,0.608219,0.602906,1.587142,0.000913
165,111,5,137,160,0.461279,0.956897,0.447581,0.956897,0.552419,0.60989,0.600484,1.593541,0.001193
166,111,5,136,161,0.457912,0.956897,0.449393,0.956897,0.550607,0.61157,0.598063,1.599993,0.00123
167,111,5,135,162,0.454545,0.956897,0.45122,0.956897,0.54878,0.61326,0.595642,1.606497,0.001359
168,111,5,134,163,0.451178,0.956897,0.453061,0.956897,0.546939,0.614958,0.59322,1.613054,0.001363
169,111,5,133,164,0.447811,0.956897,0.454918,0.956897,0.545082,0.616667,0.590799,1.619665,0.001399
170,111,5,132,165,0.444444,0.956897,0.45679,0.956897,0.54321,0.618384,0.588378,1.62633,0.00145
171,111,5,131,166,0.441077,0.956897,0.458678,0.956897,0.541322,0.620112,0.585956,1.633051,0.001505
172,111,5,130,167,0.43771,0.956897,0.460581,0.956897,0.539419,0.621849,0.583535,1.639827,0.001506
173,111,5,129,168,0.434343,0.956897,0.4625,0.956897,0.5375,0.623596,0.581114,1.646659,0.001621
174,111,5,128,169,0.430976,0.956897,0.464435,0.956897,0.535565,0.625352,0.578692,1.653549,0.001783
175,111,5,127,170,0.427609,0.956897,0.466387,0.956897,0.533613,0.627119,0.576271,1.660497,0.001824
176,111,5,126,171,0.424242,0.956897,0.468354,0.956897,0.531646,0.628895,0.57385,1.667503,0.001824
177,111,5,125,172,0.420875,0.956897,0.470339,0.956897,0.529661,0.630682,0.571429,1.674569,0.001834
178,111,5,124,173,0.417508,0.956897,0.47234,0.956897,0.52766,0.632479,0.569007,1.681695,0.001874
179,111,5,123,174,0.414141,0.956897,0.474359,0.956897,0.525641,0.634286,0.566586,1.688882,0.001879
180,111,5,122,175,0.410774,0.956897,0.476395,0.956897,0.523605,0.636103,0.564165,1.69613,0.001922
181,111,5,121,176,0.407407,0.956897,0.478448,0.956897,0.521552,0.637931,0.561743,1.703441,0.002062
182,111,5,120,177,0.40404,0.956897,0.480519,0.956897,0.519481,0.639769,0.559322,1.710815,0.002069
183,111,5,119,178,0.400673,0.956897,0.482609,0.956897,0.517391,0.641618,0.556901,1.718253,0.00209
184,111,5,118,179,0.397306,0.956897,0.484716,0.956897,0.515284,0.643478,0.554479,1.725757,0.002338
185,111,5,117,180,0.393939,0.956897,0.486842,0.956897,0.513158,0.645349,0.552058,1.733326,0.002378
186,111,5,116,181,0.390572,0.956897,0.488987,0.956897,0.511013,0.64723,0.549637,1.740962,0.002495
187,111,5,115,182,0.387205,0.956897,0.49115,0.956897,0.50885,0.649123,0.547215,1.748665,0.002531
188,111,5,114,183,0.383838,0.956897,0.493333,0.956897,0.506667,0.651026,0.544794,1.756437,0.002642
189,111,5,113,184,0.380471,0.956897,0.495536,0.956897,0.504464,0.652941,0.542373,1.764278,0.002865
190,111,5,112,185,0.377104,0.956897,0.497758,0.956897,0.502242,0.654867,0.539952,1.77219,0.003046
191,111,5,111,186,0.373737,0.956897,0.5,0.956897,0.5,0.656805,0.53753,1.780172,0.003868
192,111,5,110,187,0.37037,0.956897,0.502262,0.956897,0.497738,0.658754,0.535109,1.788227,0.004291
193,111,5,109,188,0.367003,0.956897,0.504545,0.956897,0.495455,0.660714,0.532688,1.796356,0.005153
194,111,5,108,189,0.363636,0.956897,0.506849,0.956897,0.493151,0.662687,0.530266,1.804558,0.005793
195,111,5,107,190,0.360269,0.956897,0.509174,0.956897,0.490826,0.664671,0.527845,1.812836,0.005951
196,111,5,106,191,0.356902,0.956897,0.511521,0.956897,0.488479,0.666667,0.525424,1.82119,0.006074
197,111,5,105,192,0.353535,0.956897,0.513889,0.956897,0.486111,0.668675,0.523002,1.829622,0.006102
198,111,5,104,193,0.350168,0.956897,0.516279,0.956897,0.483721,0.670695,0.520581,1.838132,0.006585
199,111,5,103,194,0.346801,0.956897,0.518692,0.956897,0.481308,0.672727,0.51816,1.846721,0.006896
200,111,5,102,195,0.343434,0.956897,0.521127,0.956897,0.478873,0.674772,0.515738,1.855391,0.007408
201,111,5,101,196,0.340067,0.956897,0.523585,0.956897,0.476415,0.676829,0.513317,1.864143,0.007914
202,111,5,100,197,0.3367,0.956897,0.526066,0.956897,0.473934,0.678899,0.510896,1.872978,0.009678
203,111,5,99,198,0.333333,0.956897,0.528571,0.956897,0.471429,0.680982,0.508475,1.881897,0.009786
204,111,5,98,199,0.329966,0.956897,0.5311,0.956897,0.4689,0.683077,0.506053,1.890901,0.009968
205,111,5,97,200,0.326599,0.956897,0.533654,0.956897,0.466346,0.685185,0.503632,1.899992,0.010138
206,111,5,96,201,0.323232,0.956897,0.536232,0.956897,0.463768,0.687307,0.501211,1.90917,0.010196
207,111,5,95,202,0.319865,0.956897,0.538835,0.956897,0.461165,0.689441,0.498789,1.918438,0.010201
208,111,5,94,203,0.316498,0.956897,0.541463,0.956897,0.458537,0.691589,0.496368,1.927796,0.010865
209,111,5,93,204,0.313131,0.956897,0.544118,0.956897,0.455882,0.69375,0.493947,1.937246,0.011408
210,111,5,92,205,0.309764,0.956897,0.546798,0.956897,0.453202,0.695925,0.491525,1.94679,0.011816
211,111,5,91,206,0.306397,0.956897,0.549505,0.956897,0.450495,0.698113,0.489104,1.956427,0.013762
212,111,5,90,207,0.30303,0.956897,0.552239,0.956897,0.447761,0.700315,0.486683,1.966161,0.015072
213,111,5,89,208,0.299663,0.956897,0.555,0.956897,0.445,0.702532,0.484262,1.975991,0.016562
214,111,5,88,209,0.296296,0.956897,0.557789,0.956897,0.442211,0.704762,0.48184,1.985921,0.017043
215,111,5,87,210,0.292929,0.956897,0.560606,0.956897,0.439394,0.707006,0.479419,1.995951,0.017517
216,111,5,86,211,0.289562,0.956897,0.563452,0.956897,0.436548,0.709265,0.476998,2.006083,0.017666
217,111,5,85,212,0.286195,0.956897,0.566327,0.956897,0.433673,0.711538,0.474576,2.016318,0.019455
218,111,5,84,213,0.282828,0.956897,0.569231,0.956897,0.430769,0.713826,0.472155,2.026658,0.019616
219,111,5,83,214,0.279461,0.956897,0.572165,0.956897,0.427835,0.716129,0.469734,2.037105,0.020337
220,111,5,82,215,0.276094,0.956897,0.57513,0.956897,0.42487,0.718447,0.467312,2.047659,0.020469
221,111,5,81,216,0.272727,0.956897,0.578125,0.956897,0.421875,0.720779,0.464891,2.058324,0.02217
222,111,5,80,217,0.26936,0.956897,0.581152,0.956897,0.418848,0.723127,0.46247,2.069101,0.022561
223,111,5,79,218,0.265993,0.956897,0.584211,0.956897,0.415789,0.72549,0.460048,2.079991,0.023773
224,110,6,79,218,0.265993,0.948276,0.582011,0.948276,0.417989,0.721311,0.457627,2.072158,0.027348
225,110,6,78,219,0.262626,0.948276,0.585106,0.948276,0.414894,0.723684,0.455206,2.08318,0.028563
226,110,6,77,220,0.259259,0.948276,0.588235,0.948276,0.411765,0.726073,0.452785,2.09432,0.028992
227,110,6,76,221,0.255892,0.948276,0.591398,0.948276,0.408602,0.728477,0.450363,2.10558,0.032172
228,110,6,75,222,0.252525,0.948276,0.594595,0.948276,0.405405,0.730897,0.447942,2.116962,0.033658
229,110,6,74,223,0.249158,0.948276,0.597826,0.948276,0.402174,0.733333,0.445521,2.128467,0.034847
230,110,6,73,224,0.245791,0.948276,0.601093,0.948276,0.398907,0.735786,0.443099,2.140098,0.037482
231,110,6,72,225,0.242424,0.948276,0.604396,0.948276,0.395604,0.738255,0.440678,2.151857,0.038152
232,110,6,71,226,0.239057,0.948276,0.607735,0.948276,0.392265,0.740741,0.438257,2.163745,0.038933
233,110,6,70,227,0.23569,0.948276,0.611111,0.948276,0.388889,0.743243,0.435835,2.175766,0.041194
234,110,6,69,228,0.232323,0.948276,0.614525,0.948276,0.385475,0.745763,0.433414,2.187921,0.043252
235,110,6,68,229,0.228956,0.948276,0.617978,0.948276,0.382022,0.748299,0.430993,2.200213,0.045562
236,110,6,67,230,0.225589,0.948276,0.621469,0.948276,0.378531,0.750853,0.428571,2.212644,0.046172
237,110,6,66,231,0.222222,0.948276,0.625,0.948276,0.375,0.753425,0.42615,2.225216,0.049756
238,110,6,65,232,0.218855,0.948276,0.628571,0.948276,0.371429,0.756014,0.423729,2.237931,0.050348
239,110,6,64,233,0.215488,0.948276,0.632184,0.948276,0.367816,0.758621,0.421308,2.250793,0.051589
240,110,6,63,234,0.212121,0.948276,0.635838,0.948276,0.364162,0.761246,0.418886,2.263803,0.052493
241,110,6,62,235,0.208754,0.948276,0.639535,0.948276,0.360465,0.763889,0.416465,2.276965,0.053298
242,110,6,61,236,0.205387,0.948276,0.643275,0.948276,0.356725,0.766551,0.414044,2.29028,0.055468
243,110,6,60,237,0.20202,0.948276,0.647059,0.948276,0.352941,0.769231,0.411622,2.303753,0.056813
244,110,6,59,238,0.198653,0.948276,0.650888,0.948276,0.349112,0.77193,0.409201,2.317384,0.0569
245,110,6,58,239,0.195286,0.948276,0.654762,0.948276,0.345238,0.774648,0.40678,2.331178,0.063165
246,110,6,57,240,0.191919,0.948276,0.658683,0.948276,0.341317,0.777385,0.404358,2.345137,0.0664
247,110,6,56,241,0.188552,0.948276,0.662651,0.948276,0.337349,0.780142,0.401937,2.359265,0.078535
248,110,6,55,242,0.185185,0.948276,0.666667,0.948276,0.333333,0.782918,0.399516,2.373563,0.079525
249,110,6,54,243,0.181818,0.948276,0.670732,0.948276,0.329268,0.785714,0.397094,2.388036,0.079953
250,110,6,53,244,0.178451,0.948276,0.674847,0.948276,0.325153,0.78853,0.394673,2.402687,0.080431
251,110,6,52,245,0.175084,0.948276,0.679012,0.948276,0.320988,0.791367,0.392252,2.417518,0.080807
252,109,7,52,245,0.175084,0.939655,0.677019,0.939655,0.322981,0.787004,0.389831,2.41042,0.086533
253,109,7,51,246,0.171717,0.939655,0.68125,0.939655,0.31875,0.789855,0.387409,2.425485,0.08699
254,109,7,50,247,0.16835,0.939655,0.685535,0.939655,0.314465,0.792727,0.384988,2.44074,0.090358
255,109,7,49,248,0.164983,0.939655,0.689873,0.939655,0.310127,0.79562,0.382567,2.456187,0.091356
256,109,7,48,249,0.161616,0.939655,0.694268,0.939655,0.305732,0.798535,0.380145,2.471832,0.095269
257,109,7,47,250,0.158249,0.939655,0.698718,0.939655,0.301282,0.801471,0.377724,2.487677,0.101533
258,109,7,46,251,0.154882,0.939655,0.703226,0.939655,0.296774,0.804428,0.375303,2.503726,0.102738
259,109,7,45,252,0.151515,0.939655,0.707792,0.939655,0.292208,0.807407,0.372881,2.519984,0.10292
260,109,7,44,253,0.148148,0.939655,0.712418,0.939655,0.287582,0.810409,0.37046,2.536455,0.103662
261,109,7,43,254,0.144781,0.939655,0.717105,0.939655,0.282895,0.813433,0.368039,2.553142,0.105491
262,109,7,42,255,0.141414,0.939655,0.721854,0.939655,0.278146,0.816479,0.365617,2.57005,0.114784
263,108,8,42,255,0.141414,0.931034,0.72,0.931034,0.28,0.81203,0.363196,2.563448,0.120035
264,108,8,41,256,0.138047,0.931034,0.724832,0.931034,0.275168,0.815094,0.360775,2.580653,0.12188
265,108,8,40,257,0.13468,0.931034,0.72973,0.931034,0.27027,0.818182,0.358354,2.598089,0.123693
266,108,8,39,258,0.131313,0.931034,0.734694,0.931034,0.265306,0.821293,0.355932,2.615764,0.125664
267,108,8,38,259,0.127946,0.931034,0.739726,0.931034,0.260274,0.824427,0.353511,2.63368,0.154785
268,108,8,37,260,0.124579,0.931034,0.744828,0.931034,0.255172,0.827586,0.35109,2.651843,0.16057
269,108,8,36,261,0.121212,0.931034,0.75,0.931034,0.25,0.830769,0.348668,2.670259,0.171859
270,108,8,35,262,0.117845,0.931034,0.755245,0.931034,0.244755,0.833977,0.346247,2.688932,0.197368
271,108,8,34,263,0.114478,0.931034,0.760563,0.931034,0.239437,0.837209,0.343826,2.707868,0.206913
272,108,8,33,264,0.111111,0.931034,0.765957,0.931034,0.234043,0.840467,0.341404,2.727073,0.212816
273,108,8,32,265,0.107744,0.931034,0.771429,0.931034,0.228571,0.84375,0.338983,2.746552,0.218121
274,108,8,31,266,0.104377,0.931034,0.776978,0.931034,0.223022,0.847059,0.336562,2.766311,0.219303
275,108,8,30,267,0.10101,0.931034,0.782609,0.931034,0.217391,0.850394,0.33414,2.786357,0.22133
276,108,8,29,268,0.097643,0.931034,0.788321,0.931034,0.211679,0.853755,0.331719,2.806695,0.224337
277,107,9,29,268,0.097643,0.922414,0.786765,0.922414,0.213235,0.849206,0.329298,2.801154,0.225945
278,107,9,28,269,0.094276,0.922414,0.792593,0.922414,0.207407,0.85259,0.326877,2.821903,0.239301
279,106,10,28,269,0.094276,0.913793,0.791045,0.913793,0.208955,0.848,0.324455,2.816392,0.247656
280,106,10,27,270,0.090909,0.913793,0.796992,0.913793,0.203008,0.851406,0.322034,2.837568,0.264415
281,106,10,26,271,0.087542,0.913793,0.80303,0.913793,0.19697,0.854839,0.319613,2.859065,0.268161
282,106,10,25,272,0.084175,0.913793,0.80916,0.913793,0.19084,0.8583,0.317191,2.88089,0.269296
283,106,10,24,273,0.080808,0.913793,0.815385,0.913793,0.184615,0.861789,0.31477,2.90305,0.30243
284,106,10,23,274,0.077441,0.913793,0.821705,0.913793,0.178295,0.865306,0.312349,2.925555,0.309194
285,106,10,22,275,0.074074,0.913793,0.828125,0.913793,0.171875,0.868852,0.309927,2.948411,0.328756
286,106,10,21,276,0.070707,0.913793,0.834646,0.913793,0.165354,0.872428,0.307506,2.971626,0.334542
287,106,10,20,277,0.06734,0.913793,0.84127,0.913793,0.15873,0.876033,0.305085,2.995211,0.335336
288,106,10,19,278,0.063973,0.913793,0.848,0.913793,0.152,0.879668,0.302663,3.019172,0.352191
289,105,11,19,278,0.063973,0.905172,0.846774,0.905172,0.153226,0.875,0.300242,3.014808,0.370018
290,105,11,18,279,0.060606,0.905172,0.853659,0.905172,0.146341,0.878661,0.297821,3.039319,0.381452
291,104,12,18,279,0.060606,0.896552,0.852459,0.896552,0.147541,0.87395,0.2954,3.035048,0.399063
292,104,12,17,280,0.057239,0.896552,0.859504,0.896552,0.140496,0.877637,0.292978,3.060131,0.416566
293,104,12,16,281,0.053872,0.896552,0.866667,0.896552,0.133333,0.881356,0.290557,3.085632,0.439585
294,104,12,15,282,0.050505,0.896552,0.87395,0.896552,0.12605,0.885106,0.288136,3.111562,0.443786
295,104,12,14,283,0.047138,0.896552,0.881356,0.896552,0.118644,0.888889,0.285714,3.137931,0.467923
296,104,12,13,284,0.043771,0.896552,0.888889,0.896552,0.111111,0.892704,0.283293,3.164751,0.484512
297,104,12,12,285,0.040404,0.896552,0.896552,0.896552,0.103448,0.896552,0.280872,3.192033,0.524318
298,104,12,11,286,0.037037,0.896552,0.904348,0.896552,0.095652,0.900433,0.27845,3.21979,0.529352
299,104,12,10,287,0.03367,0.896552,0.912281,0.896552,0.087719,0.904348,0.276029,3.248034,0.559528
300,103,13,10,287,0.03367,0.887931,0.911504,0.887931,0.088496,0.899563,0.273608,3.24527,0.568293
301,102,14,10,287,0.03367,0.87931,0.910714,0.87931,0.089286,0.894737,0.271186,3.242457,0.580256
302,101,15,10,287,0.03367,0.87069,0.90991,0.87069,0.09009,0.889868,0.268765,3.239593,0.598146
303,100,16,10,287,0.03367,0.862069,0.909091,0.862069,0.090909,0.884956,0.266344,3.236677,0.604231
304,99,17,10,287,0.03367,0.853448,0.908257,0.853448,0.091743,0.88,0.263923,3.233708,0.639769
305,98,18,10,287,0.03367,0.844828,0.907407,0.844828,0.092593,0.875,0.261501,3.230683,0.645995
306,98,18,9,288,0.030303,0.844828,0.915888,0.844828,0.084112,0.878924,0.25908,3.260877,0.647722
307,97,19,9,288,0.030303,0.836207,0.915094,0.836207,0.084906,0.873874,0.256659,3.258051,0.680321
308,97,19,8,289,0.026936,0.836207,0.92381,0.836207,0.07619,0.877828,0.254237,3.28908,0.681343
309,97,19,7,290,0.023569,0.836207,0.932692,0.836207,0.067308,0.881818,0.251816,3.320706,0.695516
310,96,20,7,290,0.023569,0.827586,0.932039,0.827586,0.067961,0.876712,0.249395,3.31838,0.705655
311,95,21,7,290,0.023569,0.818966,0.931373,0.818966,0.068627,0.87156,0.246973,3.316007,0.709681
312,95,21,6,291,0.020202,0.818966,0.940594,0.818966,0.059406,0.875576,0.244552,3.348839,0.714932
313,94,22,6,291,0.020202,0.810345,0.94,0.810345,0.06,0.87037,0.242131,3.346724,0.716974
314,93,23,6,291,0.020202,0.801724,0.939394,0.801724,0.060606,0.865116,0.239709,3.344566,0.726204
315,93,23,5,292,0.016835,0.801724,0.94898,0.801724,0.05102,0.869159,0.237288,3.378695,0.73101
316,92,24,5,292,0.016835,0.793103,0.948454,0.793103,0.051546,0.86385,0.234867,3.376822,0.738123
317,91,25,5,292,0.016835,0.784483,0.947917,0.784483,0.052083,0.858491,0.232446,3.37491,0.753519
318,90,26,5,292,0.016835,0.775862,0.947368,0.775862,0.052632,0.853081,0.230024,3.372958,0.765235
319,89,27,5,292,0.016835,0.767241,0.946809,0.767241,0.053191,0.847619,0.227603,3.370965,0.792539
320,88,28,5,292,0.016835,0.758621,0.946237,0.758621,0.053763,0.842105,0.225182,3.368928,0.800355
321,87,29,5,292,0.016835,0.75,0.945652,0.75,0.054348,0.836538,0.22276,3.366848,0.803384
322,87,29,4,293,0.013468,0.75,0.956044,0.75,0.043956,0.84058,0.220339,3.403846,0.805129
323,86,30,4,293,0.013468,0.741379,0.955556,0.741379,0.044444,0.834951,0.217918,3.402107,0.806428
324,85,31,4,293,0.013468,0.732759,0.955056,0.732759,0.044944,0.829268,0.215496,3.400329,0.848188
325,84,32,4,293,0.013468,0.724138,0.954545,0.724138,0.045455,0.823529,0.213075,3.398511,0.850812
326,83,33,4,293,0.013468,0.715517,0.954023,0.715517,0.045977,0.817734,0.210654,3.396651,0.858025
327,82,34,4,293,0.013468,0.706897,0.953488,0.706897,0.046512,0.811881,0.208232,3.394747,0.859578
328,81,35,4,293,0.013468,0.698276,0.952941,0.698276,0.047059,0.80597,0.205811,3.392799,0.864455
329,80,36,4,293,0.013468,0.689655,0.952381,0.689655,0.047619,0.8,0.20339,3.390805,0.874934
330,79,37,4,293,0.013468,0.681034,0.951807,0.681034,0.048193,0.79397,0.200969,3.388762,0.883816
331,78,38,4,293,0.013468,0.672414,0.95122,0.672414,0.04878,0.787879,0.198547,3.386669,0.884394
332,77,39,4,293,0.013468,0.663793,0.950617,0.663793,0.049383,0.781726,0.196126,3.384525,0.884493
333,76,40,4,293,0.013468,0.655172,0.95,0.655172,0.05,0.77551,0.193705,3.382328,0.885291
334,75,41,4,293,0.013468,0.646552,0.949367,0.646552,0.050633,0.769231,0.191283,3.380074,0.904263
335,74,42,4,293,0.013468,0.637931,0.948718,0.637931,0.051282,0.762887,0.188862,3.377763,0.907973
336,73,43,4,293,0.013468,0.62931,0.948052,0.62931,0.051948,0.756477,0.186441,3.375392,0.909015
337,73,43,3,294,0.010101,0.62931,0.960526,0.62931,0.039474,0.760417,0.184019,3.419805,0.913516
338,73,43,2,295,0.006734,0.62931,0.973333,0.62931,0.026667,0.764398,0.181598,3.465402,0.923547
339,72,44,2,295,0.006734,0.62069,0.972973,0.62069,0.027027,0.757895,0.179177,3.464119,0.928012
340,71,45,2,295,0.006734,0.612069,0.972603,0.612069,0.027397,0.751323,0.176755,3.462801,0.933198
341,70,46,2,295,0.006734,0.603448,0.972222,0.603448,0.027778,0.744681,0.174334,3.461446,0.936781
342,69,47,2,295,0.006734,0.594828,0.971831,0.594828,0.028169,0.737968,0.171913,3.460053,0.937043
343,68,48,2,295,0.006734,0.586207,0.971429,0.586207,0.028571,0.731183,0.169492,3.458621,0.937803
344,67,49,2,295,0.006734,0.577586,0.971014,0.577586,0.028986,0.724324,0.16707,3.457146,0.945784
345,66,50,2,295,0.006734,0.568966,0.970588,0.568966,0.029412,0.717391,0.164649,3.455629,0.95055
346,65,51,2,295,0.006734,0.560345,0.970149,0.560345,0.029851,0.710383,0.162228,3.454066,0.953349
347,64,52,2,295,0.006734,0.551724,0.969697,0.551724,0.030303,0.703297,0.159806,3.452456,0.954428
348,63,53,2,295,0.006734,0.543103,0.969231,0.543103,0.030769,0.696133,0.157385,3.450796,0.960561
349,62,54,2,295,0.006734,0.534483,0.96875,0.534483,0.03125,0.688889,0.154964,3.449084,0.963773
350,61,55,2,295,0.006734,0.525862,0.968254,0.525862,0.031746,0.681564,0.152542,3.447318,0.964403
351,60,56,2,295,0.006734,0.517241,0.967742,0.517241,0.032258,0.674157,0.150121,3.445495,0.9656
352,59,57,2,295,0.006734,0.508621,0.967213,0.508621,0.032787,0.666667,0.1477,3.443612,0.966446
353,58,58,2,295,0.006734,0.5,0.966667,0.5,0.033333,0.659091,0.145278,3.441667,0.967015
354,57,59,2,295,0.006734,0.491379,0.966102,0.491379,0.033898,0.651429,0.142857,3.439655,0.972847
355,56,60,2,295,0.006734,0.482759,0.965517,0.482759,0.034483,0.643678,0.140436,3.437574,0.9742
356,55,61,2,295,0.006734,0.474138,0.964912,0.474138,0.035088,0.635838,0.138015,3.43542,0.974656
357,54,62,2,295,0.006734,0.465517,0.964286,0.465517,0.035714,0.627907,0.135593,3.43319,0.976386
358,53,63,2,295,0.006734,0.456897,0.963636,0.456897,0.036364,0.619883,0.133172,3.430878,0.97936
359,52,64,2,295,0.006734,0.448276,0.962963,0.448276,0.037037,0.611765,0.130751,3.42848,0.979517
360,51,65,2,295,0.006734,0.439655,0.962264,0.439655,0.037736,0.60355,0.128329,3.425992,0.97981
361,50,66,2,295,0.006734,0.431034,0.961538,0.431034,0.038462,0.595238,0.125908,3.423408,0.980347
362,49,67,2,295,0.006734,0.422414,0.960784,0.422414,0.039216,0.586826,0.123487,3.420723,0.980782
363,48,68,2,295,0.006734,0.413793,0.96,0.413793,0.04,0.578313,0.121065,3.417931,0.980908
364,48,68,1,296,0.003367,0.413793,0.979592,0.413793,0.020408,0.581818,0.118644,3.487685,0.981403
365,47,69,1,296,0.003367,0.405172,0.979167,0.405172,0.020833,0.573171,0.116223,3.486171,0.981645
366,46,70,1,296,0.003367,0.396552,0.978723,0.396552,0.021277,0.564417,0.113801,3.484593,0.981688
367,45,71,1,296,0.003367,0.387931,0.978261,0.387931,0.021739,0.555556,0.11138,3.482946,0.983627
368,44,72,1,296,0.003367,0.37931,0.977778,0.37931,0.022222,0.546584,0.108959,3.481226,0.984167
369,43,73,1,296,0.003367,0.37069,0.977273,0.37069,0.022727,0.5375,0.106538,3.479428,0.984406
370,42,74,1,296,0.003367,0.362069,0.976744,0.362069,0.023256,0.528302,0.104116,3.477546,0.98442
371,41,75,1,296,0.003367,0.353448,0.97619,0.353448,0.02381,0.518987,0.101695,3.475575,0.98544
372,40,76,1,296,0.003367,0.344828,0.97561,0.344828,0.02439,0.509554,0.099274,3.473507,0.985549
373,39,77,1,296,0.003367,0.336207,0.975,0.336207,0.025,0.5,0.096852,3.471336,0.986578
374,38,78,1,296,0.003367,0.327586,0.974359,0.327586,0.025641,0.490323,0.094431,3.469054,0.986817
375,37,79,1,296,0.003367,0.318966,0.973684,0.318966,0.026316,0.480519,0.09201,3.466652,0.990261
376,36,80,1,296,0.003367,0.310345,0.972973,0.310345,0.027027,0.470588,0.089588,3.464119,0.992826
377,35,81,1,296,0.003367,0.301724,0.972222,0.301724,0.027778,0.460526,0.087167,3.461446,0.992835
378,34,82,1,296,0.003367,0.293103,0.971429,0.293103,0.028571,0.450331,0.084746,3.458621,0.993296
379,33,83,1,296,0.003367,0.284483,0.970588,0.284483,0.029412,0.44,0.082324,3.455629,0.993768
380,32,84,1,296,0.003367,0.275862,0.969697,0.275862,0.030303,0.42953,0.079903,3.452456,0.994415
381,31,85,1,296,0.003367,0.267241,0.96875,0.267241,0.03125,0.418919,0.077482,3.449084,0.994452
382,30,86,1,296,0.003367,0.258621,0.967742,0.258621,0.032258,0.408163,0.075061,3.445495,0.994467
383,29,87,1,296,0.003367,0.25,0.966667,0.25,0.033333,0.39726,0.072639,3.441667,0.994839
384,28,88,1,296,0.003367,0.241379,0.965517,0.241379,0.034483,0.386207,0.070218,3.437574,0.995057
385,27,89,1,296,0.003367,0.232759,0.964286,0.232759,0.035714,0.375,0.067797,3.43319,0.996342
386,26,90,1,296,0.003367,0.224138,0.962963,0.224138,0.037037,0.363636,0.065375,3.42848,0.996371
387,25,91,1,296,0.003367,0.215517,0.961538,0.215517,0.038462,0.352113,0.062954,3.423408,0.997252
388,24,92,1,296,0.003367,0.206897,0.96,0.206897,0.04,0.340426,0.060533,3.417931,0.997356
389,23,93,1,296,0.003367,0.198276,0.958333,0.198276,0.041667,0.328571,0.058111,3.411997,0.997393
390,22,94,1,296,0.003367,0.189655,0.956522,0.189655,0.043478,0.316547,0.05569,3.405547,0.997407
391,21,95,1,296,0.003367,0.181034,0.954545,0.181034,0.045455,0.304348,0.053269,3.398511,0.997532
392,20,96,1,296,0.003367,0.172414,0.952381,0.172414,0.047619,0.291971,0.050847,3.390805,0.99756
393,19,97,1,296,0.003367,0.163793,0.95,0.163793,0.05,0.279412,0.048426,3.382328,0.997726
394,19,97,0,297,0,0.163793,1,0.163793,0,0.281481,0.046005,3.560345,0.997926
395,18,98,0,297,0,0.155172,1,0.155172,0,0.268657,0.043584,3.560345,0.998312
396,17,99,0,297,0,0.146552,1,0.146552,0,0.255639,0.041162,3.560345,0.998716
397,16,100,0,297,0,0.137931,1,0.137931,0,0.242424,0.038741,3.560345,0.998858
398,15,101,0,297,0,0.12931,1,0.12931,0,0.229008,0.03632,3.560345,0.998912
399,14,102,0,297,0,0.12069,1,0.12069,0,0.215385,0.033898,3.560345,0.998983
400,13,103,0,297,0,0.112069,1,0.112069,0,0.20155,0.031477,3.560345,0.998991
401,12,104,0,297,0,0.103448,1,0.103448,0,0.1875,0.029056,3.560345,0.998992
402,11,105,0,297,0,0.094828,1,0.094828,0,0.173228,0.026634,3.560345,0.99911
403,10,106,0,297,0,0.086207,1,0.086207,0,0.15873,0.024213,3.560345,0.999163
404,9,107,0,297,0,0.077586,1,0.077586,0,0.144,0.021792,3.560345,0.99917
405,8,108,0,297,0,0.068966,1,0.068966,0,0.129032,0.01937,3.560345,0.999426
406,7,109,0,297,0,0.060345,1,0.060345,0,0.113821,0.016949,3.560345,0.999474
407,6,110,0,297,0,0.051724,1,0.051724,0,0.098361,0.014528,3.560345,0.999511
408,5,111,0,297,0,0.043103,1,0.043103,0,0.082645,0.012107,3.560345,0.999621
409,4,112,0,297,0,0.034483,1,0.034483,0,0.066667,0.009685,3.560345,0.999674
410,3,113,0,297,0,0.025862,1,0.025862,0,0.05042,0.007264,?,0.999756
411,2,114,0,297,0,0.017241,1,0.017241,0,0.033898,0.004843,?,0.999847
412,1,115,0,297,0,0.008621,1,0.008621,0,0.017094,0.002421,?,0.999982
413,0,116,0,297,0,0,?,0,?,?,0,?,0.999992