"huml","humw","ulnal","ulnaw","feml","femw","tibl","tibw","tarl","tarw","type"
0.19015521906299,0.0142877486115726,0.16934067498932,0.010015664309109,0.0976645939146533,0.00721507571082736,0.0114871600132909,0.00799829116627902,0.0902833815920634,0.0075473489343523,4
0.209450799829117,0.0141690796031708,0.189561874020981,0.0117007642284141,0.110077372193478,0.00863910381164855,0.18882612616889,0.00913751364693597,0.0969288460625623,0.00795082356291831,4
0.188232781126881,0.0135520007594817,0.162813879527223,0.0109650163763232,0.100655052926378,0.00768975174443442,0.177267764750558,0.00802202496795937,0.0893577633265297,0.00636065885033465,4
0.182726539137039,0.011961836046898,0.154507048939099,0.00975459249062515,0.0934637110172307,0.006787867280581,0.1626002753121,0.00650306166041677,0.0833531115014003,0.00652679546209712,4
0.147481843641715,0.00992072910238762,0.122062942042056,0.00728627711586842,0.0790098257938957,0.00488916314615275,0.131983671144444,0.00545877438648123,0.0740969288460626,0.00586224901504723,4
0.145393269093843,0.0097783262923055,0.118194332368159,0.00666919827217924,0.115963355010206,0.00890017563013244,0.133597569658708,0.0049128969478331,0.0674277305738833,0.00515023496463664,4
0.187663169886552,0.0125314472872265,0.158375658612997,0.00911377984525561,0.0982816727583424,0.00652679546209712,0.167560639863293,0.00688280248730242,0.0867707789433712,0.00707267290074524,4
0.204870176104809,0.0119143684435373,0.175297859211088,0.00923244885365738,0.103954051359947,0.00740494612427019,0.178857929463141,0.00747614752931125,0.0884796126643566,0.00747614752931125,4
0.278967104950871,0.0169934020031329,0.275264631888736,0.0129823895191532,0.139246214458632,0.0113684910048892,0.259505387572981,0.0116770304267338,0.144681255043433,0.00880524042341102,4
0.342573693454218,0.0231641904400247,0.340200313286182,0.0151658992737457,0.166848625812883,0.0160915175392794,0.283239189253335,0.0157829781174348,0.185147386908435,0.0134807993544406,4
0.390041296814924,0.0256087720131011,0.368680875302606,0.0190345089476432,0.188897327573931,0.0170646034081739,0.337826933118147,0.0180139554753881,0.203992025442635,0.0141690796031708,4
0.439882280343665,0.0217638961408838,0.359187354630465,0.0192243793610861,0.131390326102435,0.0150946978687046,0.43750890017563,0.0175867470451417,0.213936488346703,0.00932738406037879,4
0.406654957991171,0.0184648977073148,0.335453552950112,0.0184411639056344,0.122276546257179,0.0142877486115726,0.425641999335454,0.0212654863055964,0.194427303365453,0.0114871600132909,4
0.351853609911236,0.0145250866283761,0.286443252480182,0.0138605401813262,0.103550576731381,0.0134570655527602,0.366307495134571,0.0142877486115726,0.17337542127498,0.00849670100156643,4
0.352518156358285,0.0149997626619832,0.286751791902027,0.013172259932596,0.101272131770067,0.011226088194807,0.366307495134571,0.0141216119998101,0.177979778800968,0.00640812645369535,4
0.332107086913182,0.0140741443964494,0.273674467176152,0.0122229078653819,0.0927754307685005,0.0117482318317748,0.392414676982959,0.0170171358048132,0.17610480846822,0.006787867280581,4
0.319385769212512,0.0131959937342764,0.256609863767978,0.0122703754687426,0.0885982816727584,0.0106090093511179,0.371054255470641,0.0154744386955903,0.170361228461575,0.00681160108226136,4
0.293990601414535,0.0126975838989889,0.236649736554801,0.0122466416670622,0.0804101200930365,0.0113210234015285,0.342573693454218,0.0153320358855081,0.154886789765985,0.00621825604025253,4
0.299924051834623,0.0131010585275549,0.241776237717758,0.0118194332368159,0.0851094128257465,0.0100393981107894,0.354440594294394,0.0145250866283761,0.158090852992832,0.00569611240328476,4
0.250059334504201,0.00904257844021455,0.2257796553852,0.00871030521668961,0.0980206009398586,0.00982579389566621,0.305999905064793,0.0149048274552618,0.165258461100299,0.006384392652015,4
0.268619167418237,0.00982579389566621,0.237456685811933,0.00885270802677173,0.102743627474249,0.0104903403427161,0.314733944083163,0.0160203161342384,0.166729956804481,0.00481796174111169,4
0.256230122941093,0.0103954051359947,0.230312811506147,0.00949352067214126,0.105425547064129,0.0121517064603408,0.302226230597617,0.0153795034888688,0.153842502492049,0.00852043480324678,4
0.260288603028433,0.0123415768737836,0.228888783405326,0.00935111786205914,0.102435088052404,0.0120330374519391,0.297479470261547,0.0170883372098543,0.150733374471923,0.0075473489343523,4
0.149428015379504,0.00655052926377747,0.13846299900318,0.00496036455119381,0.0700147149570418,0.00536383917975981,0.175630132434613,0.00882897422509137,0.0916124744861632,0.00310912802012626,4
0.166302748374235,0.00719134190914701,0.153154222243319,0.00538757298144017,0.0756158921536052,0.00683533488394171,0.189300802202497,0.00878150662173067,0.10215028243224,0.00384487587221721,4
0.168486258128827,0.00643186025537571,0.155337731997911,0.00500783215455452,0.0862011677030427,0.00569611240328476,0.1814449138463,0.00778468695115584,0.0887169506811601,0.00515023496463664,4
0.111192860872455,0.015593107703992,0.0755446907485641,0.0180376892770684,0.117790857739593,0.0103004699292733,0.176911757725352,0.0101818009208715,0.0518583566715717,0.0238999382921156,4
0.108083732852328,0.015189633075426,0.0761143019888926,0.0187971709308397,0.122205344852138,0.0105615417477572,0.1787867280581,0.00975459249062515,0.0535909241942374,0.0227369820097783,4
0.0960506954003893,0.0143589500166137,0.0720083542981915,0.0167797977880097,0.115939621208525,0.00956472207718232,0.169174538377557,0.00920871505197703,0.0517396876631699,0.0208620116770304,4
0.170503631271657,0.0335121279726587,0.107205582190155,0.0229505862249015,0.181231309631177,0.0168509991930507,0.304006265723644,0.0138368063796459,0.0755209569468838,0.0312336830113448,4
0.176555750700147,0.0282194901979399,0.102980965491052,0.0188921061375611,0.177172829543836,0.0144776190250154,0.265676176009873,0.0155693739023117,0.0798642426543884,0.0318744956567143,4
0.413775098495277,0.0238050030853942,0.539564247401149,0.0189633075426022,0.110290976408601,0.0130535909241942,0.151587791332416,0.00890017563013244,0.0421512317843072,0.00709640670242559,4
0.444629040679736,0.0253714339962975,0.591778611097926,0.0213129539089571,0.12301229410927,0.0164712583661651,0.162339203493616,0.0106090093511179,0.0447619499691461,0.0138842739830066,4
0.496843404376513,0.0293587126785969,0.658233255802914,0.023923672093796,0.133407699245265,0.0174918118384203,0.180376892770684,0.0107751459628803,0.0519295580766127,0.0154269710922296,4
0.43750890017563,0.024327146722362,0.556177908577396,0.0174680780367399,0.119475957658898,0.0143589500166137,0.161413585228082,0.00849670100156643,0.046233445673328,0.0133858641477192,4
0.423268619167418,0.0249204917643708,0.525323966392937,0.0187734371291594,0.111192860872455,0.0135994683628424,0.153130488441639,0.00913751364693597,0.0451179569943514,0.0141928134048512,4
0.43276213983956,0.0254189015996582,0.662980016138985,0.0203161342383823,0.122656287084065,0.0156168415056724,0.160037024730621,0.0093748516637395,0.0460910428632458,0.0136469359662031,4
0.43750890017563,0.0280296197844971,0.572791569753643,0.0216926947358428,0.122774956092467,0.0162339203493616,0.159847154317179,0.00949352067214126,0.0445720795557032,0.0155456401006313,4
0.643992974794703,0.0337019983861015,0.757915222860398,0.0231641904400247,0.215835192481132,0.0214790905207196,0.311719751269758,0.022713248208098,0.192504865429344,0.0195803863862914,4
0.639246214458632,0.0322542364835999,0.734181421180045,0.0243034129206816,0.203018939573741,0.0220724355627284,0.296909859021218,0.0212892201072768,0.186357810794133,0.0222860397778516,4
0.23724308159681,0.0140978781981298,0.259505387572981,0.0121991740637015,0.084136326956852,0.00538757298144017,0.129206816347843,0.00600465182512935,0.0668106517301941,0.00987326149902691,4
0.23589025490103,0.0135282669578013,0.254283951203304,0.0122703754687426,0.085750225471116,0.00600465182512935,0.128898276925998,0.00645559405705606,0.0643660701571178,0.0104666065410357,4
0.347320453790288,0.0184648977073148,0.366307495134571,0.0124365120805051,0.13706270470404,0.0147386908434993,0.257060805999905,0.0165424597712062,0.148905871742536,0.0143352162149333,4
0.368680875302606,0.0183224948972326,0.394788057150994,0.0127213177006693,0.139175013053591,0.01478615844686,0.264252147909052,0.0167797977880097,0.155836141833199,0.0148336260502207,4
0.300778468695116,0.0145962880334172,0.309346371101723,0.00989699530070727,0.116366829638772,0.0103954051359947,0.207124887264442,0.0129111881141121,0.123937912374804,0.0105378079460768,4
0.25675226657806,0.0149997626619832,0.273745668581193,0.00913751364693597,0.1142782550909,0.0110362177813642,0.206626477429155,0.0153083020838278,0.111074191864053,0.0101343333175108,4
0.311719751269758,0.0180614230787488,0.335453552950112,0.0119143684435373,0.131224189490673,0.0137418711729245,0.276451321972754,0.0171832724165757,0.144894859258556,0.0127213177006693,4
0.418521858831348,0.020292400436702,0.456495941519913,0.0161864527460009,0.137276308919163,0.0150946978687046,0.21372288413158,0.014311482413253,0.130796981060426,0.0192955807661271,4
0.430388759671524,0.0201262638249395,0.463616082024019,0.0160203161342384,0.141975601651873,0.0144776190250154,0.21441116438031,0.013979209189728,0.134285849907438,0.0179664878720273,4
0.354440594294394,0.017539279441781,0.394788057150994,0.0142402810082119,0.124175250391608,0.0124365120805051,0.184079365832819,0.0117719656334552,0.107727725827123,0.0173494090283382,4
0.404281577823136,0.018346228698913,0.442255660511701,0.0142877486115726,0.137679783547729,0.0143352162149333,0.206270470403949,0.0134807993544406,0.118146864764798,0.0183936963022737,4
0.380547776142783,0.017942754070347,0.428015379503489,0.014382683818294,0.116699102862296,0.011154886789766,0.162291735890255,0.0107276783595196,0.0869843831584943,0.0160915175392794,4
0.413775098495277,0.0200787962215788,0.475482982864195,0.0156168415056724,0.129467888166327,0.0128637205107514,0.174965585987563,0.0113210234015285,0.0924668913466559,0.0171120710115346,4
0.0521431622917359,0.00431955190582427,0.0630844448663787,0.00325153083020838,0.0483694878245597,0.00322779702852803,0.0878862676223478,0.00275312099492097,0.0504343285707505,0.00251578297811743,4
0.0556557649404282,0.00396354488061898,0.0650068828024873,0.00291925760668344,0.0508378031993165,0.00329899843356909,0.0936773152323539,0.00242084777139602,0.0547538804765747,0.0026344519865192,4
0.0672141263587601,0.00493663074951346,0.0847534058005411,0.00386860967389756,0.06586129966298,0.00434328570750463,0.119214885840414,0.00363127165709403,0.0745478710779893,0.00325153083020838,4
0.734181421180045,0.0326102435088052,0.746048322020221,0.0210044144871125,0.209118526605592,0.0176579484501827,0.425641999335454,0.0208620116770304,0.226586604642332,0.0166848625812883,4
0.591778611097926,0.0267005268903973,0.596525371433996,0.0181563582854702,0.171785256562396,0.015925380927517,0.378174395974747,0.0185360991123558,0.194142497745289,0.0151421654720653,4
0.995253239663929,0.0407746712868467,1,0.0262495846584706,0.260787012863721,0.0221436369677695,0.560924668913467,0.0246119523425262,0.30305691365643,0.0196278539896521,4
0.591778611097926,0.0252052973845351,0.585845160677837,0.0162339203493616,0.162291735890255,0.0131485261309157,0.368680875302606,0.0154981724972706,0.196278539896521,0.0129823895191532,4
0.710447619499691,0.0280533535861774,0.710447619499691,0.0189633075426022,0.197916172212465,0.0186785019224379,0.420895238999383,0.0212417525039161,0.233421939526273,0.0163525893577633,4
0.0546114776664926,0.0029904590117245,0.0476812075758295,0.00275312099492097,0.0367873926045474,0.00242084777139602,0.106090093511179,0.00218350975459249,0.0735035838040537,0.00277685479660132,4
0.0698960459486401,0.00446195471590639,0.066597047515071,0.00398727868229933,0.0474676033607063,0.00358380405373333,0.135828547016661,0.00408221388902074,0.0809085299283239,0.00441448711254569,4
0.0850619452223857,0.00427208430246357,0.0801253144728723,0.00377367446717615,0.0406797360801253,0.00220724355627284,0.0993022262305976,0.00194617173778896,0.0590259647790383,0.00154269710922296,4
0.196492144111644,0.00894764323349314,0.192077656999098,0.00792708976123795,0.0890017563013244,0.00612332083353112,0.18616794038069,0.00579104761000617,0.103598044334742,0.00512650116295628,4
0.203090140978782,0.00918498125029667,0.196159870888119,0.00721507571082736,0.0907580576256705,0.00593345042008829,0.196041201879717,0.00707267290074524,0.107703992025443,0.00498409835287416,4
0.0800303792661509,0.00289552380500309,0.0817629467888166,0.00249204917643708,0.0324915745004035,0.00121042388569801,0.08736412398538,0.00149522950586225,0.0588360943655955,0.0011154886789766,4
0.0754972231452034,0.0030379266150852,0.0737646556225376,0.00265818578819955,0.0325390421037642,0.00135282669578013,0.0774433948829924,0.00121042388569801,0.0477761427825509,0.00102055347225519,4
0.0894289647315707,0.00405848008734039,0.086153700099682,0.00320406322684768,0.0343190772297907,0.0015189633075426,0.082593629847629,0.00144776190250154,0.0529263777471876,0.00128162529073907,4
0.0962405658138321,0.00436701950918498,0.100726254331419,0.00420088289742251,0.0416290881473394,0.00185123653106755,0.104499928798595,0.00218350975459249,0.0715811458679451,0.00166136611762472,4
0.0616366829638772,0.00230217876299426,0.0629657758579769,0.00251578297811743,0.0274125409408079,0.000854416860492714,0.0733374471922913,0.00097308586889448,0.0497460483220202,0.000403474628566004,4
0.0620638913941235,0.00237338016803532,0.0612806759386719,0.00201737314283002,0.0281957563962596,0.000735747852090948,0.0733137133906109,0.000830683058812361,0.0486780272464043,0.000522143636967769,4
0.105852755494375,0.00624198984193288,0.0856078226610339,0.00579104761000617,0.058266483125267,0.00341766744197085,0.11494280153795,0.00408221388902074,0.0637727251151089,0.00325153083020838,4
0.101556937390231,0.0060283856268097,0.0795794370342242,0.00607585323017041,0.0549912184933783,0.00360753785541368,0.112593155171595,0.0033939336402905,0.0607110646983434,0.0029904590117245,4
0.234466226800209,0.0101105995158304,0.220463283808801,0.00809322637300043,0.0958608249869464,0.00655052926377747,0.204015759244316,0.00700147149570418,0.108653344092657,0.00552997579152229,4
0.252242844258793,0.0120093036502587,0.24661793326055,0.00880524042341102,0.105211942849006,0.00702520529738454,0.221151564057531,0.00823562918308255,0.119879432287464,0.00633692504865429,4
0.257725352446955,0.0126026486922675,0.247116343095837,0.00982579389566621,0.113352636825367,0.00804575876963972,0.222077182323065,0.00878150662173067,0.121873071628613,0.00669293207385959,4
0.252978592110884,0.0129823895191532,0.248041961361371,0.00984952769734656,0.106303697726302,0.00873403901836996,0.217520292400437,0.00918498125029667,0.112972895998481,0.00607585323017041,4
0.124507523615133,0.00555370959320264,0.123605639151279,0.00507903355959558,0.0525229031186215,0.00306166041676556,0.122418949067262,0.00351260264869227,0.0717947500830683,0.00253951677979779,4
0.12704704039493,0.00593345042008829,0.127260644610054,0.00605211942849006,0.0532111833673518,0.00313286182180662,0.125884084112593,0.00327526463188874,0.0726966345469217,0.00213604215123178,4
0.152038733564342,0.00802202496795937,0.144159111406465,0.00586224901504723,0.0763516400056961,0.00431955190582427,0.151706460340817,0.00472302653439028,0.0722931599183557,0.00351260264869227,4
0.162481606303698,0.00875777282005031,0.153818768690369,0.00709640670242559,0.0848246072055822,0.00510276736127593,0.158636730431481,0.00467555893102957,0.0771348554611478,0.00372620686381545,4
0.337826933118147,0.0149048274552618,0.339868040062657,0.0114159586082499,0.111596335501021,0.0089713770351735,0.254995965253714,0.0110362177813642,0.148051454882043,0.0074998813309916,4
0.364646129016946,0.0161389851426401,0.365500545877439,0.0128874543124318,0.119665828072341,0.0109412825746428,0.266032183035079,0.011154886789766,0.153083020838278,0.00809322637300043,4
0.213200740494612,0.00958845587886268,0.228698912991883,0.00818816157972184,0.0695637727251151,0.00443822091422604,0.138059524374614,0.00477049413775098,0.0798879764560688,0.00496036455119381,4
0.211064698343381,0.0105615417477572,0.231072293159918,0.0090188446385342,0.0695400389234348,0.00448568851758675,0.136303223050268,0.00505529975791522,0.0800778468695116,0.00541130678312052,4
0.20966440404424,0.00982579389566621,0.221293966867613,0.00783215455451654,0.0743105330611857,0.00500783215455452,0.14714957041819,0.0049128969478331,0.0850382114207054,0.00609958703185076,4
0.210803626524897,0.0097308586889448,0.21773389661556,0.00814069397636113,0.0665258461100299,0.00455688992262781,0.135614942801538,0.00481796174111169,0.0742393316561447,0.00474676033607063,4
0.189965348649547,0.0108463473679214,0.202449328333412,0.00852043480324678,0.0762804386006551,0.00550624198984193,0.165923007547349,0.0052689039730384,0.0928228983718612,0.00408221388902074,4
0.190606161294916,0.0108938149712821,0.204063226847676,0.0079033559595576,0.0754972231452034,0.00498409835287416,0.165234727298619,0.00564864479992405,0.0911852660559168,0.00408221388902074,4
0.178668059049699,0.0108938149712821,0.189870413442825,0.00854416860492714,0.0718659514881094,0.00519770256799734,0.160369297954146,0.00548250818816158,0.0871505197702568,0.00429581810414392,4
0.254378886410025,0.00797455736459866,0.165068590686856,0.00624198984193288,0.0613756111453933,0.00310912802012626,0.122822423695828,0.0045094223192671,0.0713200740494613,0.00294299140836379,4
0.163074951345707,0.00809322637300043,0.157639910760906,0.00700147149570418,0.0660749038781032,0.0037974082688565,0.125219537665543,0.00325153083020838,0.0721982247116343,0.00315659562348697,4
0.242417050363127,0.0122466416670622,0.251768168225186,0.00961218968054303,0.166279014572554,0.0056723786016044,0.166326482175915,0.00576731380832582,0.0940095884558789,0.00555370959320264,4
0.236436132339678,0.0117244980300945,0.258176294678882,0.010015664309109,0.0884796126643566,0.00541130678312052,0.170551098875018,0.00647932785873641,0.0943893292827645,0.00529263777471875,4
0.169720415816205,0.00778468695115584,0.174989319789244,0.00688280248730242,0.0560829733706745,0.00277685479660132,0.118621540798405,0.00393981107893862,0.0658375658612997,0.00365500545877439,4
0.243223999620259,0.0124839796838658,0.244434423505957,0.0097783262923055,0.090520719608867,0.00652679546209712,0.177718706982484,0.00666919827217924,0.100227844496131,0.00583851521336688,4
0.25335833293777,0.0119381022452176,0.260692077656999,0.0110599515830446,0.0948402715146912,0.00590971661840794,0.192718469644468,0.00723880951250771,0.104333792186832,0.00543504058480087,4
0.15996582332558,0.00735747852090948,0.163644562586035,0.0060283856268097,0.05779180709166,0.00329899843356909,0.119665828072341,0.00455688992262781,0.0629657758579769,0.00318032942516732,4
0.154388379930697,0.00747614752931125,0.161342383823041,0.00640812645369535,0.0567000522143637,0.00310912802012626,0.114586794512745,0.0030379266150852,0.0651255518108891,0.00377367446717615,4
0.157592443157545,0.00683533488394171,0.159775952912138,0.00612332083353112,0.0573408648597332,0.0026344519865192,0.121564532206769,0.00284805620164238,0.0698960459486401,0.00230217876299426,4
0.158850334646604,0.00728627711586842,0.161128779607918,0.00600465182512935,0.0564864479992405,0.00291925760668344,0.117244980300945,0.00403474628566004,0.0630132434613376,0.0026344519865192,4
0.236412398537998,0.0120805050552998,0.254639958228509,0.00996819670574833,0.0826885650543504,0.0056249109982437,0.163478425974273,0.00605211942849006,0.0929653011819433,0.00621825604025253,4
0.161010110599516,0.00738121232258983,0.167299568044809,0.00636065885033465,0.0574358000664546,0.00306166041676556,0.120520244932833,0.00341766744197085,0.0699435135520008,0.00405848008734039,4
0.160179427540703,0.0075473489343523,0.17005268903973,0.00655052926377747,0.0559405705605924,0.00294299140836379,0.117719656334552,0.00348886884701191,0.0676413347890065,0.00329899843356909,4
0.254189015996582,0.00961218968054303,0.260003797408269,0.00821189538140219,0.0842312621635734,0.00581478141168652,0.179237670290027,0.00738121232258983,0.116176959225329,0.006384392652015,4
0.258793373522571,0.00946978687046091,0.259196848151137,0.00802202496795937,0.0818816157972184,0.00614705463521147,0.180709165994209,0.00688280248730242,0.110623249632126,0.00550624198984193,4
0.237409218208573,0.00982579389566621,0.238809512507714,0.00823562918308255,0.0847296719988608,0.00640812645369535,0.20164237907628,0.00840176579484502,0.123130963117672,0.0056249109982437,4
0.235961456306071,0.0104666065410357,0.237694023828737,0.00802202496795937,0.0866046423316087,0.00738121232258983,0.206223002800589,0.00783215455451654,0.124009113779845,0.00512650116295628,4
0.16466511605829,0.00968339108558409,0.14382683818294,0.0078558883561969,0.0651730194142498,0.00550624198984193,0.167204632838088,0.00659799686713818,0.0939146532491575,0.00296672521004415,4
0.178691792851379,0.0112972895998481,0.155456401006313,0.00830683058812361,0.0713200740494613,0.00579104761000617,0.185788199553805,0.00688280248730242,0.10480846822044,0.00370247306213509,4
0.250557744339488,0.0146200218350975,0.24531257416813,0.0104666065410357,0.0935111786205915,0.0102055347225519,0.248445435989937,0.0102767361275929,0.134357051312479,0.0060283856268097,4
0.248089428964732,0.0152845682821474,0.228295438363317,0.0113210234015285,0.0876963972089049,0.00894764323349314,0.24061328143542,0.0100631319124697,0.128447334694071,0.00515023496463664,4
0.179973418142118,0.011154886789766,0.162339203493616,0.00797455736459866,0.0698011107419187,0.0056249109982437,0.170290027056534,0.00723880951250771,0.100749988133099,0.00337019983861015,4
0.154269710922296,0.00742867992595054,0.143352162149333,0.006384392652015,0.0576494042815778,0.00422461669910286,0.149760288603028,0.00488916314615275,0.0938197180424361,0.00291925760668344,4
0.232757393079223,0.0138130725779655,0.216048796696255,0.0110362177813642,0.0823088242274648,0.00797455736459866,0.217638961408838,0.0090188446385342,0.118360468979921,0.00481796174111169,4
0.371054255470641,0.0197939906014145,0.454122561351877,0.0150946978687046,0.20159491147292,0.0137181373712441,0.537190867233113,0.0146674894384583,0.413775098495277,0.0145013528266958,6
0.449375801015807,0.0267242606920777,0.532444106897043,0.0187259695257986,0.23992500118669,0.0168272653913704,0.568044809417573,0.016732330184649,0.413775098495277,0.0150472302653439,6
0.164593914653249,0.00723880951250771,0.180946504011013,0.0052689039730384,0.115726016993402,0.00574358000664546,0.187259695257986,0.006384392652015,0.123605639151279,0.00560117719656335,6
0.218991788104619,0.0109650163763232,0.261736364930935,0.00761855033939336,0.129230550149523,0.00830683058812361,0.323586652109935,0.0086153700099682,0.22715621588266,0.00742867992595054,6
0.279726586604642,0.0147386908434993,0.318626287558741,0.0104428727393554,0.184031898229458,0.0108700811696017,0.311719751269758,0.0112023543931267,0.200835429819148,0.00968339108558409,6
0.283856268097024,0.0150709640670243,0.312716570940333,0.0112498219964874,0.157450040347463,0.0111311529880856,0.307210328950491,0.010822613566241,0.206175535197228,0.0105852755494375,6
0.158945269853325,0.00880524042341102,0.141239853799782,0.00728627711586842,0.12429391940001,0.00811696017468078,0.217211752978592,0.0086628376133289,0.127497982626857,0.0082593629847629,6
0.133906109080553,0.00859163620828785,0.109317890539707,0.00704893909906489,0.125741681302511,0.00818816157972184,0.211871647600513,0.00847296719988608,0.13642189205867,0.00868657141500926,6
0.112806759386719,0.00659799686713818,0.10217401623392,0.00557744339488299,0.118194332368159,0.00697773769402383,0.223572411828927,0.00662173066881853,0.128969478331039,0.00927991645701809,6
0.0719846204965111,0.0033939336402905,0.0604737266815399,0.00275312099492097,0.0763516400056961,0.0033939336402905,0.118692742203446,0.00313286182180662,0.0715336782645844,0.00306166041676556,6
0.0795319694308635,0.00367873926045474,0.0644135377604785,0.00310912802012626,0.0834480467081217,0.00393981107893862,0.121303460388285,0.00332273223524944,0.0770636540561067,0.00301419281340485,6
0.087767598613946,0.00365500545877439,0.073384914795652,0.00287179000332273,0.0878862676223478,0.00405848008734039,0.133858641477192,0.00363127165709403,0.0866995775383301,0.00365500545877439,6
0.0817629467888166,0.00439075331086533,0.0676888023923672,0.00446195471590639,0.053495988987516,0.00272938719324061,0.0888356196895619,0.00280058859828167,0.041937627569184,0.00215977595291214,6
0.0776332652964352,0.00481796174111169,0.0697773769402383,0.00439075331086533,0.052689039730384,0.00280058859828167,0.0893340295248493,0.00287179000332273,0.0438363317036123,0.00208857454787108,6
0.0810271989367257,0.00422461669910286,0.0675463995822851,0.00408221388902074,0.0534010537807946,0.0022309773579532,0.0826885650543504,0.00201737314283002,0.0436939288935302,0.00192243793610861,6
0.176176009873262,0.0117956994351355,0.142118004461955,0.00951725447382162,0.106137561114539,0.00626572364361323,0.169696682014525,0.00681160108226136,0.0742393316561447,0.00878150662173067,6
0.180495561779086,0.0122466416670622,0.14449138462999,0.0107751459628803,0.112047277732947,0.00681160108226136,0.177006692932074,0.00842549959652537,0.0817629467888166,0.00904257844021455,6
0.105829021692695,0.0067403996772203,0.0903308491954241,0.00633692504865429,0.0663122418949067,0.00325153083020838,0.108463473679214,0.0041059476907011,0.0554658945269853,0.00315659562348697,6
0.108558408885935,0.00647932785873641,0.0900460435752599,0.00631319124697394,0.0672615939621208,0.00403474628566004,0.11491906773627,0.00434328570750463,0.0614468125504343,0.00363127165709403,6
0.10684957516495,0.00780842075283619,0.0909479280391133,0.00676413347890065,0.0676176009873262,0.00422461669910286,0.105781554089334,0.00441448711254569,0.0569136564294869,0.00469929273270993,6
0.105662885080932,0.00659799686713818,0.0898799069634974,0.00590971661840794,0.0656239616461765,0.00367873926045474,0.109816300374994,0.00403474628566004,0.05980918023449,0.00346513504533156,6
0.11762472112783,0.0086628376133289,0.0846584705938197,0.00742867992595054,0.0594294394076043,0.0037499406654958,0.108605876489296,0.00341766744197085,0.0598329140361703,0.0018749703327479,6
0.104547396401956,0.00776095314947548,0.0764465752124175,0.00548250818816158,0.0479660131959937,0.00261071818483885,0.0952437461432572,0.00270565339156026,0.0540181326244838,0.00140029429914084,6
0.199981012958656,0.0171832724165757,0.148336260502207,0.0121517064603408,0.109436559548108,0.0075473489343523,0.195115583614183,0.00878150662173067,0.0866521099349694,0.00609958703185076,6
0.20767076470309,0.0177766174585845,0.157426306545783,0.0132671951393174,0.108914415911141,0.00759481653771301,0.195471590639389,0.0079033559595576,0.0855603550576731,0.0075473489343523,6
0.193976361133526,0.00982579389566621,0.217971234632363,0.00707267290074524,0.112023543931267,0.00804575876963972,0.330706792614041,0.00854416860492714,0.224830303317986,0.00657426306545783,6
0.196563345516685,0.0104428727393554,0.222623059761713,0.00690653628898277,0.115346276166516,0.00802202496795937,0.259505387572981,0.00745241372763089,0.193050742867993,0.00662173066881853,6
0.0647458109840034,0.00301419281340485,0.070228319172165,0.00237338016803532,0.0448331513741871,0.00204110694451037,0.0820002848056202,0.00170883372098543,0.0565101818009209,0.00118669008401766,6
0.068210946029335,0.00329899843356909,0.0757108273603266,0.00294299140836379,0.0480846822043955,0.00189870413442825,0.0909004604357526,0.0018749703327479,0.0553472255185836,0.00128162529073907,6
0.162006930270091,0.00906631224189491,0.177481368965681,0.0078558883561969,0.089784971756776,0.00560117719656335,0.210044144871125,0.00681160108226136,0.159230075473489,0.00517396876631699,6
0.158328191009636,0.00873403901836996,0.184743912279869,0.00804575876963972,0.0637727251151089,0.00443822091422604,0.106968244173352,0.00443822091422604,0.0591208999857597,0.00377367446717615,6
0.0904969858071866,0.00462809132766887,0.109033084919542,0.00469929273270993,0.042673375421275,0.00208857454787108,0.07459533868135,0.00168509991930507,0.0359329757440547,0.0014714957041819,6
0.275454502302179,0.0128637205107514,0.316039303175583,0.0134333317510799,0.10416765557507,0.00697773769402383,0.183652157402573,0.0079033559595576,0.114207053685859,0.00488916314615275,6
0.327099254758627,0.016328855556083,0.371054255470641,0.014382683818294,0.146057815540893,0.0104666065410357,0.273959272796317,0.0122703754687426,0.170479897469977,0.00778468695115584,6
0.264228414107372,0.0134570655527602,0.297194664641382,0.0106090093511179,0.10682584136327,0.00731001091754877,0.199696207338491,0.00776095314947548,0.123605639151279,0.00579104761000617,6
0.193762756918403,0.010015664309109,0.224118289267575,0.00873403901836996,0.0871742535719372,0.00560117719656335,0.177244030948877,0.00600465182512935,0.117244980300945,0.00408221388902074,6
0.255802914510846,0.0139554753880477,0.28558883561969,0.0116058290216927,0.112094745336308,0.00811696017468078,0.212607395452604,0.00814069397636113,0.142758817107324,0.0056723786016044,6
0.326173636493093,0.017610480846822,0.367470451416908,0.0160677837375991,0.148288792898847,0.0113684910048892,0.295106090093511,0.00949352067214126,0.176840556320311,0.00818816157972184,6
0.30578630084967,0.0162813879527223,0.340200313286182,0.0136232021645227,0.141572127023307,0.0100868657141501,0.267669815351023,0.0106564769544786,0.164831252670053,0.00690653628898277,6
0.236673470356482,0.0115346276166516,0.267195139317416,0.0103954051359947,0.104571130203636,0.00809322637300043,0.195115583614183,0.00719134190914701,0.128494802297432,0.00614705463521147,6
0.300802202496796,0.0148810936535814,0.335453552950112,0.0132671951393174,0.137133906109081,0.00954098827550197,0.253524469549532,0.0107751459628803,0.154317178525656,0.00761855033939336,6
0.354440594294394,0.017539279441781,0.4019081976551,0.0159016471258366,0.158874068448284,0.0126263824939479,0.294916219680068,0.0121042388569801,0.184530308064746,0.00871030521668961,6
0.166777424407842,0.00856790240660749,0.186595148810937,0.00759481653771301,0.0859638296862392,0.00605211942849006,0.169554279204443,0.00515023496463664,0.102387620449044,0.00455688992262781,6
0.299235771585893,0.0138605401813262,0.330706792614041,0.0122466416670622,0.13708643850572,0.00949352067214126,0.249560924668913,0.0105140741443964,0.152157402572744,0.00704893909906489,6
0.17204632838088,0.00840176579484502,0.190962168320122,0.00726254331418807,0.0783215455451654,0.00465182512934922,0.165495799117103,0.00434328570750463,0.101367066976788,0.00405848008734039,6
0.199482603123368,0.0110124839796839,0.222931599183557,0.00878150662173067,0.0842787297669341,0.00590971661840794,0.164498979446528,0.0056249109982437,0.0790572933972564,0.00431955190582427,6
0.216523472729862,0.0102767361275929,0.234133953576684,0.00965965728390374,0.0934399772155504,0.00538757298144017,0.172236198794323,0.00552997579152229,0.0835904495182038,0.00417714909574216,6
0.200170883372099,0.0104666065410357,0.219561399344947,0.00842549959652537,0.0894052309298904,0.00453315612094745,0.158209522001234,0.0049128969478331,0.0933687758105093,0.00443822091422604,6
0.207077419661081,0.0106564769544786,0.230241610101106,0.0097783262923055,0.0899748421702188,0.00536383917975981,0.164807518868372,0.00458062372430816,0.0796269046375849,0.00396354488061898,6
0.149095742155979,0.00799829116627902,0.181967057483268,0.00709640670242559,0.0621350927991646,0.00391607727725827,0.114301988892581,0.00439075331086533,0.0528077087387858,0.00246831537475673,6
0.188303982531922,0.00958845587886268,0.264157212702331,0.00999193050742868,0.0937722504390753,0.00636065885033465,0.16193572886505,0.00614705463521147,0.0783927469502065,0.00484169554279204,6
0.119381022452176,0.00631319124697394,0.138795272226705,0.005980918023449,0.0522618313001377,0.00256325058147814,0.0874115915887407,0.00332273223524944,0.0361940475625386,0.00249204917643708,6
0.0580054113067831,0.00242084777139602,0.0604025252764988,0.00253951677979779,0.0408221388902074,0.00159016471258366,0.0835192481131628,0.00128162529073907,0.0540656002278445,0.000925618265533773,6
0.0515735510514074,0.00206484074619072,0.0557744339488299,0.00149522950586225,0.0359804433474154,0.0011629562823373,0.0703707219822471,0.000783215455451654,0.0413917501305359,0.000830683058812361,6
0.0527602411354251,0.00211230834955143,0.0568661888261262,0.00220724355627284,0.0357193715289315,0.00113922248065695,0.079769307447667,0.000949352067214127,0.048322020221199,0.00090188446385342,6
0.152109934969383,0.00856790240660749,0.164878720273413,0.00771348554611478,0.0976883277163336,0.00609958703185076,0.203730953624152,0.00747614752931125,0.153272891251721,0.00652679546209712,6
0.083804053733327,0.00510276736127593,0.0923244885365738,0.00436701950918498,0.0724118289267575,0.00356007025205297,0.121849337826933,0.00443822091422604,0.0747140076897518,0.00365500545877439,6
0.167774244078416,0.0100393981107894,0.190606161294916,0.0269141311055205,0.0992547586272369,0.00605211942849006,0.203968291640955,0.00688280248730242,0.160986376797835,0.0056249109982437,6
0.17273460862961,0.0106802107561589,0.196943086343571,0.00806949257132007,0.105117007642284,0.00645559405705606,0.190107751459629,0.00735747852090948,0.138059524374614,0.0056723786016044,6
0.0772297906678692,0.00344140124365121,0.0798642426543884,0.00377367446717615,0.0467555893102957,0.00215977595291214,0.088503346466037,0.00180376892770684,0.0546114776664926,0.00142402810082119,6
0.0751174823183178,0.00356007025205297,0.0761380357905729,0.00313286182180662,0.0436464612901695,0.00175630132434613,0.0776332652964352,0.00113922248065695,0.0487492286514454,0.000806949257132007,6
0.0660986376797836,0.00270565339156026,0.0680922770209332,0.00265818578819955,0.0402050600465183,0.00130535909241942,0.0839701903450895,0.00113922248065695,0.0478236103859116,0.000403474628566004,6
0.0794133004224617,0.00294299140836379,0.0828547016661129,0.00301419281340485,0.0487966962548061,0.00173256752266578,0.10817866805905,0.00144776190250154,0.0729339725637253,0.000925618265533773,6
0.20494137750985,0.0107276783595196,0.222338254141548,0.00899511083685385,0.0832344424929985,0.00507903355959558,0.157734845967627,0.00538757298144017,0.10150946978687,0.00398727868229933,6
0.10279109507761,0.00944605306878056,0.11964209427066,0.00745241372763089,0.0904257844021455,0.005980918023449,0.130559643043623,0.0052689039730384,0.0706080599990506,0.00515023496463664,5
0.104238856980111,0.0121042388569801,0.12365310675464,0.00992072910238762,0.0944842644894859,0.00735747852090948,0.132339678169649,0.00628945744529359,0.0727678359519628,0.00636065885033465,5
0.0464945174918118,0.00401101248397968,0.0581003465135045,0.00261071818483885,0.046304647078369,0.00168509991930507,0.0641049983386339,0.00178003512602649,0.0356481701238904,0.00211230834955143,5
0.114017183272417,0.0113922248065695,0.134641856932643,0.00728627711586842,0.0994446290406798,0.00571984620496511,0.122846157497508,0.00519770256799734,0.0630607110646983,0.0056249109982437,5
0.0832581762946789,0.00771348554611478,0.0914700716760811,0.00538757298144017,0.0767788484359425,0.00472302653439028,0.100014240281008,0.00360753785541368,0.0574120662647743,0.00398727868229933,5
0.0878862676223478,0.00835429819148431,0.101200930365026,0.00645559405705606,0.0815018749703328,0.00524517017135805,0.115085204348032,0.00405848008734039,0.0609246689134666,0.00439075331086533,5
0.0726254331418807,0.00697773769402383,0.0820714862106612,0.00534010537807946,0.0663597094982674,0.00417714909574216,0.0910903308491954,0.00393981107893862,0.0503631271657094,0.00382114207053686,5
0.0719371528931504,0.00709640670242559,0.0849907438173447,0.00545877438648123,0.0649594151991266,0.00367873926045474,0.0872217211752979,0.00315659562348697,0.0485356244363222,0.00377367446717615,5
0.0703707219822471,0.00640812645369535,0.0810984003417668,0.00434328570750463,0.0609958703185076,0.00358380405373333,0.0795082356291831,0.00289552380500309,0.0428632458347178,0.00325153083020838,5
0.0744292020695875,0.00552997579152229,0.0641761997436749,0.00408221388902074,0.0892628281198082,0.00469929273270993,0.12500593345042,0.0048654293444724,0.0720083542981915,0.00424835050078322,5
0.0751886837233588,0.00595718422176864,0.0673802629705226,0.00403474628566004,0.0925143589500166,0.00484169554279204,0.129823895191532,0.00439075331086533,0.0864385057198462,0.00370247306213509,5
0.0717235486780272,0.00631319124697394,0.0623486970142878,0.0041534152940618,0.0890729577063654,0.00512650116295628,0.125623012294109,0.00465182512934922,0.0696824417335169,0.0041059476907011,5
0.0746428062847107,0.00666919827217924,0.0660274362747425,0.00465182512934922,0.0923007547348934,0.00628945744529359,0.13172259932596,0.00555370959320264,0.0737646556225376,0.00434328570750463,5
0.0758294963687283,0.00550624198984193,0.0657663644562586,0.00434328570750463,0.08736412398538,0.00462809132766887,0.114539326909384,0.0041059476907011,0.0659799686713818,0.00398727868229933,5
0.0806237243081597,0.00579104761000617,0.0622062942042056,0.00401101248397968,0.0954336165567001,0.0056723786016044,0.126548630559643,0.00505529975791522,0.0734086485973323,0.00467555893102957,5
0.0750462809132767,0.00636065885033465,0.0667631841268334,0.00424835050078322,0.089713770351735,0.00512650116295628,0.124056581383206,0.00436701950918498,0.0719371528931504,0.00431955190582427,5
0.218730716286135,0.0212180187022357,0.237148146390089,0.016400056961124,0.195281720225946,0.0161627189443205,0.279062040157592,0.0141216119998101,0.162576541510419,0.0118669008401766,5
0.130440974035221,0.00980206009398586,0.122062942042056,0.00854416860492714,0.152228603977785,0.0120567712536194,0.2029477381687,0.0097308586889448,0.115607347985,0.00852043480324678,5
0.0759956329804908,0.00617078843689182,0.0673090615654816,0.00403474628566004,0.0918972801063274,0.00488916314615275,0.13241087957469,0.00436701950918498,0.0757108273603266,0.00434328570750463,5
0.0796981060426259,0.00647932785873641,0.0711776712393791,0.00467555893102957,0.0943418616794038,0.00536383917975981,0.126050220724356,0.00488916314615275,0.0749513457065553,0.00477049413775098,5
0.28027246404329,0.026676793088717,0.246879005079034,0.00975459249062515,0.256776000379741,0.0228556510181801,0.43276213983956,0.0214316229173589,0.316466511605829,0.0173256752266578,5
0.299852850429582,0.0311624816063037,0.29100014240281,0.0207908102719894,0.276285185360991,0.0260597142450278,0.447002420847771,0.0222385721744909,0.303412920681635,0.0178715526653059,5
0.0925143589500166,0.00809322637300043,0.0870081169601747,0.00550624198984193,0.106422366734704,0.00655052926377747,0.151397920918973,0.00643186025537571,0.0880761380357906,0.0052214363696777,5
0.134855461147767,0.00968339108558409,0.162339203493616,0.00811696017468078,0.135045331561209,0.00982579389566621,0.188683723358808,0.00852043480324678,0.142118004461955,0.00740494612427019,2
0.146746095789624,0.00970712488726444,0.163763231594437,0.0079033559595576,0.13442825271752,0.00935111786205914,0.182607870128637,0.00854416860492714,0.141572127023307,0.00759481653771301,2
0.12771158684198,0.00880524042341102,0.148644799924052,0.00631319124697394,0.111952342526226,0.00662173066881853,0.150923244885366,0.00590971661840794,0.128898276925998,0.0052214363696777,2
0.135045331561209,0.00871030521668961,0.157806047372668,0.00683533488394171,0.129420420562966,0.00842549959652537,0.176508283096786,0.00723880951250771,0.139246214458632,0.00624198984193288,2
0.123937912374804,0.00904257844021455,0.145630607110647,0.00735747852090948,0.11019604120188,0.00707267290074524,0.148953339345896,0.00650306166041677,0.127877723453743,0.00531637157639911,2
0.261570228319172,0.0180376892770684,0.304718279774054,0.0145250866283761,0.19020268666635,0.0173731428300185,0.265106564769545,0.0154744386955903,0.199435135520008,0.0153083020838278,2
0.276997199411402,0.0203873356434234,0.322447429629278,0.0150472302653439,0.206080599990506,0.0196041201879717,0.281269283713865,0.0171595386148953,0.203992025442635,0.0159016471258366,2
0.241349029287511,0.0150709640670243,0.280082593629848,0.0120093036502587,0.185337257321878,0.01478615844686,0.24528884036645,0.0129586557174728,0.188541320548725,0.0129111881141121,2
0.255636777899084,0.0162101865476812,0.305525229031186,0.0126738500973086,0.193739023116723,0.0144301514216547,0.267551146342621,0.013575734561162,0.202662932548536,0.0130298571225139,2
0.191602980965491,0.0121279726586605,0.223501210423886,0.00982579389566621,0.155005458774386,0.0115346276166516,0.215906393886173,0.0112023543931267,0.172378601604405,0.0105615417477572,2
0.195732662457873,0.0121991740637015,0.224901504723027,0.00887644182845208,0.157402572744102,0.0106327431527982,0.213461812313096,0.0101818009208715,0.177956044999288,0.00925618265533773,2
0.211159633550102,0.0137181373712441,0.245526178383253,0.0109175487729625,0.169886552427968,0.0134333317510799,0.23050268191959,0.0122229078653819,0.180614230787488,0.0109887501780035,2
0.209783073052642,0.0133383965443585,0.240731950443822,0.0111786205914463,0.16532966250534,0.0124365120805051,0.226562870840651,0.011961836046898,0.176555750700147,0.0105852755494375,2
0.233255802914511,0.0153557696871885,0.282574642806285,0.0117244980300945,0.174467176152276,0.0133858641477192,0.251198556984858,0.0121991740637015,0.195732662457873,0.0123415768737836,2
0.287012863720511,0.0178240850619452,0.350927991645702,0.0137181373712441,0.211254568756823,0.0165424597712062,0.275430768500498,0.0147386908434993,0.196088669483078,0.0145725542317368,2
0.30711539374377,0.0210044144871125,0.366307495134571,0.0154744386955903,0.223406275217164,0.0189395737409218,0.29636398158257,0.0171120710115346,0.126192623534438,0.0171595386148953,2
0.274718754450088,0.0146912232401386,0.309346371101723,0.0121991740637015,0.177291498552238,0.013979209189728,0.28293064983149,0.0129111881141121,0.235107039445578,0.0128162529073907,2
0.252527649878958,0.0188921061375611,0.304789481179095,0.0138130725779655,0.167014762424645,0.0147386908434993,0.23591398870271,0.0129111881141121,0.161342383823041,0.012365310675464,2
0.283239189253335,0.0183224948972326,0.306972990933688,0.0136469359662031,0.211871647600513,0.0185123653106755,0.274149143209759,0.0162813879527223,0.19822471163431,0.0149760288603028,2
0.201238904447714,0.0130535909241942,0.234157687378364,0.00984952769734656,0.124246451796649,0.00856790240660749,0.162552807708739,0.00842549959652537,0.0876963972089049,0.0114159586082499,2
0.195471590639389,0.0125551810889068,0.228580243983481,0.00882897422509137,0.121540798405089,0.00842549959652537,0.156500688280249,0.00806949257132007,0.0852992832391893,0.0117956994351355,2
0.169245739782598,0.0131010585275549,0.199411401718327,0.0106327431527982,0.14983149000807,0.0113210234015285,0.195257986424265,0.0094223192671002,0.123534437746238,0.00963592348222338,2
0.194427303365453,0.0158067119191152,0.229885603075901,0.0131247923292353,0.167821711681777,0.0133858641477192,0.215977595291214,0.0118431670384962,0.133550102055347,0.0126501162956282,2
0.106113827312859,0.00726254331418807,0.120354108321071,0.00593345042008829,0.0910428632458347,0.00552997579152229,0.124768595433617,0.00479422793943134,0.0887881520862012,0.00386860967389756,2
0.0972848530877676,0.00702520529738454,0.107632790620402,0.0056249109982437,0.0895001661366118,0.00519770256799734,0.112616888973276,0.00448568851758675,0.0826648312526701,0.00370247306213509,2
0.0992072910238762,0.00671666587553994,0.110789386243889,0.00619452223857217,0.0839464565434091,0.00541130678312052,0.115132671951393,0.00479422793943134,0.0800303792661509,0.00377367446717615,2
0.342573693454218,0.0230455214316229,0.444629040679736,0.0172307400199364,0.181397446242939,0.0168272653913704,0.296245312574168,0.0171832724165757,0.121825604025253,0.0213129539089571,2
0.335453552950112,0.0212180187022357,0.193050742867993,0.0157829781174348,0.18346228698913,0.015118431670385,0.295058622490151,0.0151658992737457,0.121422129396687,0.0180376892770684,2
0.342573693454218,0.0229031186215408,0.444629040679736,0.0170646034081739,0.185598329140362,0.0167560639863293,0.298761095552286,0.0153557696871885,0.125741681302511,0.0195091849812503,2
0.134689324536004,0.0074998813309916,0.165495799117103,0.00574358000664546,0.0926567617600988,0.00643186025537571,0.156453220676888,0.00633692504865429,0.10953149475483,0.00503156595623487,2
0.11895381402193,0.00590971661840794,0.147695447856838,0.00481796174111169,0.0846347367921394,0.00517396876631699,0.146841030996345,0.00496036455119381,0.103052166896093,0.00462809132766887,2
0.281150614705464,0.016400056961124,0.324464802772108,0.0128162529073907,0.177694973180804,0.0135045331561209,0.271419756016519,0.0131959937342764,0.143186025537571,0.017207006218256,2
0.277139602221484,0.0153557696871885,0.321830350785589,0.0115108938149713,0.177718706982484,0.0123178430721033,0.272084302463569,0.0113684910048892,0.139531020078796,0.0180139554753881,2
0.275763041724023,0.0160677837375991,0.318365215740257,0.0131247923292353,0.172900745241373,0.0129111881141121,0.265818578819955,0.0125314472872265,0.14380310438126,0.0148098922485404,2
0.28224236958276,0.0175155456401006,0.326885650543504,0.0132671951393174,0.179664878720273,0.0138605401813262,0.27350833056439,0.0128399867090711,0.140599041154412,0.0148573598519011,2
0.299568044809418,0.0174443442350596,0.3508093226373,0.0140741443964494,0.191674182370532,0.0143589500166137,0.292851378933878,0.0140504105947691,0.151682726539137,0.0173494090283382,2
0.110362177813642,0.00512650116295628,0.129942564199934,0.00405848008734039,0.0805050552997579,0.00429581810414392,0.124744861631936,0.00386860967389756,0.0785826173636493,0.00439075331086533,2
0.105022072435563,0.00446195471590639,0.113423838230408,0.00351260264869227,0.0811933355484882,0.00431955190582427,0.119167418237053,0.00382114207053686,0.0691602980965491,0.00484169554279204,2
0.144633787440072,0.00655052926377747,0.155693739023117,0.00458062372430816,0.0863435705131248,0.00517396876631699,0.148027721080363,0.00524517017135805,0.104072720368349,0.00420088289742251,2
0.221602506289457,0.0123890444771443,0.245478710779893,0.00868657141500926,0.133146627426781,0.0102530023259126,0.227702093321308,0.00999193050742868,0.161366117624721,0.00887644182845208,2
0.21234632363412,0.0124839796838658,0.245929653011819,0.00887644182845208,0.127901457255423,0.00946978687046091,0.223880951250771,0.00892390943181279,0.158755399439882,0.0082593629847629,2
0.236459866141359,0.0134570655527602,0.264703090140979,0.00956472207718232,0.140148098922485,0.0101580671191912,0.241799971519438,0.0110836853847249,0.167014762424645,0.0101818009208715,2
0.227369820097783,0.0119855698485783,0.263896140883847,0.00840176579484502,0.140409170740969,0.00946978687046091,0.233777946551479,0.00925618265533773,0.173945032515308,0.0086153700099682,2
0.220036075378554,0.0110836853847249,0.242061043337922,0.00768975174443442,0.137394977927564,0.00939858546541985,0.238714577300992,0.00927991645701809,0.167655575070015,0.00882897422509137,2
0.235035838040537,0.0128874543124318,0.261878767741017,0.00854416860492714,0.142830018512365,0.00970712488726444,0.246973940285755,0.0101105995158304,0.167489438458252,0.00842549959652537,2
0.0811221341434471,0.00422461669910286,0.0949826743247734,0.00327526463188874,0.0896425689466939,0.00446195471590639,0.0992547586272369,0.00424835050078322,0.0460673090615655,0.00590971661840794,2
0.0770399202544264,0.00412968149238145,0.0930127687853041,0.00270565339156026,0.0636065885033465,0.00363127165709403,0.0909716618407937,0.00353633645037262,0.0437651302985712,0.00529263777471875,2
0.082997104476195,0.00412968149238145,0.0997057008591636,0.00322779702852803,0.0660986376797836,0.0041534152940618,0.0996344994541226,0.00427208430246357,0.0483932216262401,0.00583851521336688,2
0.06787867280581,0.00474676033607063,0.0640100631319125,0.00372620686381545,0.0645796743722409,0.00325153083020838,0.0907580576256705,0.00272938719324061,0.0582902169269474,0.0022784449613139,1
0.0710590022309774,0.00424835050078322,0.0599041154412114,0.00287179000332273,0.0752361513267195,0.00341766744197085,0.117695922532871,0.00289552380500309,0.0781316751317226,0.00289552380500309,1
0.070228319172165,0.00386860967389756,0.0581003465135045,0.00287179000332273,0.073456116200693,0.00360753785541368,0.119428490055537,0.00318032942516732,0.0779418047182798,0.00301419281340485,1
0.0993496938339583,0.00552997579152229,0.0856078226610339,0.00534010537807946,0.122418949067262,0.00747614752931125,0.192030189395737,0.00723880951250771,0.143850571984621,0.0048654293444724,1
0.106659704751507,0.006384392652015,0.0903545829971045,0.006787867280581,0.12766411923862,0.00816442777804149,0.196824417335169,0.00726254331418807,0.150116295628234,0.00477049413775098,1
0.10279109507761,0.00683533488394171,0.0895238999382921,0.00588598281672758,0.12301229410927,0.00852043480324678,0.195780130061233,0.00821189538140219,0.143399629752694,0.00564864479992405,1
0.108510941282575,0.00652679546209712,0.0928940997769023,0.00669293207385959,0.128186262875587,0.00811696017468078,0.20225945791997,0.00802202496795937,0.149736554801348,0.00576731380832582,1
0.106588503346466,0.00944605306878056,0.134024778088954,0.00538757298144017,0.0656476954478568,0.0037974082688565,0.0861299662980016,0.00308539421844591,0.0453078274077942,0.00356007025205297,1
0.0786775525703707,0.00507903355959558,0.100061707884369,0.00370247306213509,0.0432429866616035,0.0018749703327479,0.0608059999050648,0.00154269710922296,0.032728912517207,0.00149522950586225,1
0.0737171880191769,0.00469929273270993,0.0933687758105093,0.00315659562348697,0.0467555893102957,0.00220724355627284,0.0748801443015142,0.0022784449613139,0.0404898656666825,0.00204110694451037,1
0.0218113637442446,0.0052689039730384,0.0333934589642569,0.00253951677979779,0.0370484644230313,0.00132909289409978,0.0480134807993544,0.00140029429914084,0.0168747329947311,0.00135282669578013,1
0.103977785161627,0.00849670100156643,0.130796981060426,0.00657426306545783,0.0899748421702188,0.00569611240328476,0.123748041961361,0.00512650116295628,0.0425072388095125,0.00697773769402383,1
0.0422461669910286,0.00268191958987991,0.0485593582380026,0.00192243793610861,0.0431243176532017,0.00130535909241942,0.0609246689134666,0.000925618265533773,0.0255138368063796,0.00213604215123178,1
0.0424597712061518,0.00346513504533156,0.0484644230312812,0.00178003512602649,0.0416053543456591,0.0015189633075426,0.0600702520529738,0.00121042388569801,0.0251578297811744,0.00215977595291214,1
0.0638676603218304,0.00477049413775098,0.0734323823990127,0.00346513504533156,0.0433379218683249,0.00204110694451037,0.070631793800731,0.00218350975459249,0.0280058859828167,0.00189870413442825,1
0.0626809702378127,0.00474676033607063,0.074263065457825,0.00287179000332273,0.0430531162481606,0.00201737314283002,0.0610433379218683,0.00159016471258366,0.0281482887928988,0.00118669008401766,1
0.0623249632126074,0.0049128969478331,0.0732899795889306,0.00320406322684768,0.0437651302985712,0.00220724355627284,0.0617553519722789,0.00163763231594437,0.0297859211088432,0.00135282669578013,1
0.115014002942991,0.00695400389234348,0.143091090330849,0.00552997579152229,0.0609721365168273,0.00318032942516732,0.0869369155551336,0.00272938719324061,0.0230929890349836,0.00325153083020838,1
0.11425452128922,0.00740494612427019,0.139578487682157,0.00595718422176864,0.0604737266815399,0.0037499406654958,0.0838989889400484,0.00230217876299426,0.0260834480467081,0.00318032942516732,1
0.110385911615323,0.00783215455451654,0.132695685194855,0.00524517017135805,0.0781791427350833,0.00479422793943134,0.118669008401766,0.00434328570750463,0.0744529358712679,0.00332273223524944,1
0.0882897422509138,0.00612332083353112,0.109317890539707,0.00467555893102957,0.0637489913134286,0.0037974082688565,0.0992784924289173,0.00291925760668344,0.062230028005886,0.00208857454787108,1
0.0933213082071486,0.00636065885033465,0.111169127070774,0.00469929273270993,0.0662410404898657,0.00443822091422604,0.100393981107894,0.00365500545877439,0.0640812645369535,0.00239711396971567,1
0.103289504912897,0.00764228414107372,0.118811411211848,0.00671666587553994,0.0923719561399345,0.00768975174443442,0.119214885840414,0.00700147149570418,0.0818341481938577,0.00512650116295628,1
0.0965965728390374,0.006787867280581,0.115536146579959,0.00515023496463664,0.0719371528931504,0.00427208430246357,0.103598044334742,0.00420088289742251,0.0695637727251151,0.00329899843356909,1
0.097308586889448,0.00688280248730242,0.114301988892581,0.00507903355959558,0.0742393316561447,0.00441448711254569,0.108059999050648,0.00391607727725827,0.071367541652822,0.00306166041676556,1
0.0726729007452414,0.00515023496463664,0.0859638296862392,0.00365500545877439,0.0513599468362842,0.00341766744197085,0.075805762567048,0.00242084777139602,0.0470166611287796,0.00208857454787108,1
0.0792946314140599,0.00617078843689182,0.0965491052356767,0.00465182512934922,0.0559880381639531,0.00389234347557792,0.0847059381971804,0.00348886884701191,0.0570323254378886,0.00346513504533156,1
0.07863008496701,0.00564864479992405,0.0984240755684246,0.0045094223192671,0.0532349171690321,0.00367873926045474,0.0808847961266436,0.00334646603692979,0.0509327384060379,0.00265818578819955,1
0.0794845018275027,0.00550624198984193,0.094958940523093,0.00424835050078322,0.0571035268429297,0.00313286182180662,0.0870793183652158,0.00301419281340485,0.0541842692362463,0.00239711396971567,1
0.0859638296862392,0.005980918023449,0.108273603265771,0.00500783215455452,0.0603313238714577,0.00363127165709403,0.0920396829164096,0.00325153083020838,0.0591921013908008,0.00313286182180662,1
0.066193572886505,0.00472302653439028,0.0785114159586083,0.00408221388902074,0.0448568851758675,0.00313286182180662,0.0677600037974083,0.00232591256467461,0.0429344472397589,0.00206484074619072,1
0.0708453980158542,0.00481796174111169,0.0822850904257844,0.00386860967389756,0.0504105947690701,0.00327526463188874,0.074998813309916,0.00234964636635496,0.051882090473252,0.00182750272938719,1
0.0691840318982295,0.00458062372430816,0.0816205439787345,0.00384487587221721,0.0494137750984953,0.00344140124365121,0.0741206626477429,0.00280058859828167,0.049864717330422,0.00204110694451037,1
0.0642236673470356,0.00477049413775098,0.0743817344662268,0.00367873926045474,0.0522618313001377,0.00348886884701191,0.0755684245502445,0.00261071818483885,0.0450704893909906,0.00232591256467461,1
0.0675938671856458,0.00496036455119381,0.0765415104191389,0.00356007025205297,0.0533298523757536,0.00344140124365121,0.0788674229838136,0.00270565339156026,0.0479422793943134,0.00246831537475673,1
0.0645322067688802,0.00472302653439028,0.0758532301704087,0.00329899843356909,0.0526415721270233,0.00351260264869227,0.078226610338444,0.00296672521004415,0.047847344187592,0.00270565339156026,1
0.0460435752598851,0.00253951677979779,0.0533773199791143,0.00196990553946931,0.037902881283524,0.00215977595291214,0.0570797930412494,0.00149522950586225,0.0344852138415531,0.00137656049746048,1
0.0971661840793658,0.00731001091754877,0.132529548583092,0.00560117719656335,0.0862486353064034,0.00552997579152229,0.147719181658518,0.00512650116295628,0.0891204253097261,0.00439075331086533,1
0.0687093558646224,0.0041534152940618,0.078962358190535,0.00322779702852803,0.0715099444629041,0.00363127165709403,0.12099492096644,0.00320406322684768,0.087031850761855,0.00265818578819955,3
0.0702995205772061,0.00529263777471875,0.0823800256325058,0.00353633645037262,0.0722219585133147,0.00439075331086533,0.125077134855461,0.00391607727725827,0.0922295533298524,0.00244458157307637,3
0.0651255518108891,0.00422461669910286,0.0755684245502445,0.00363127165709403,0.0688754924763849,0.00396354488061898,0.118218066169839,0.00367873926045474,0.088574547871078,0.00268191958987991,3
0.0664546447049889,0.00431955190582427,0.0773247258745906,0.00322779702852803,0.0680448094175725,0.0037974082688565,0.118621540798405,0.00329899843356909,0.0838515213366877,0.00282432239996203,3
0.0847296719988608,0.00628945744529359,0.0945791996962073,0.0045094223192671,0.0874827929937818,0.00519770256799734,0.126501162956282,0.00467555893102957,0.099800636065885,0.0041534152940618,3
0.0863673043148051,0.00669293207385959,0.0967152418474391,0.00534010537807946,0.0871267859685765,0.00588598281672758,0.144752456448474,0.00529263777471875,0.104571130203636,0.0037499406654958,3
0.0961930982104714,0.00740494612427019,0.101058527554944,0.00534010537807946,0.0924431575449756,0.00590971661840794,0.151943798357621,0.00552997579152229,0.109365358143067,0.00446195471590639,3
0.0879337352257085,0.00685906868562206,0.0992310248255566,0.00529263777471875,0.0889068210946029,0.00586224901504723,0.146651160582902,0.00569611240328476,0.108582142687616,0.00417714909574216,3
0.090188446385342,0.00752361513267195,0.10217401623392,0.00560117719656335,0.0934874448189111,0.00676413347890065,0.152632078606351,0.00543504058480087,0.111620069302701,0.00453315612094745,3
0.0484406892296008,0.00318032942516732,0.0586224901504723,0.00246831537475673,0.0403474628566004,0.00251578297811743,0.0608059999050648,0.00163763231594437,0.0445483457540229,0.00166136611762472,3
0.0493663074951346,0.00310912802012626,0.0588123605639151,0.00253951677979779,0.0406085346750843,0.00249204917643708,0.0625385674277306,0.00213604215123178,0.0436701950918498,0.00142402810082119,3
0.0509564722077182,0.00341766744197085,0.0613993449470736,0.00265818578819955,0.0407509374851664,0.00230217876299426,0.0604262590781791,0.00204110694451037,0.0429107134380785,0.00128162529073907,3
0.0502207243556273,0.00318032942516732,0.0618740209806807,0.0026344519865192,0.0400389234347558,0.00220724355627284,0.0597142450277686,0.00173256752266578,0.0430293824464803,0.00168509991930507,3
0.0375943418616794,0.00189870413442825,0.0445720795557032,0.00180376892770684,0.0354108321070869,0.00130535909241942,0.0606398632933023,0.00121042388569801,0.0422224331893483,0.00113922248065695,3
0.0363364503726207,0.00192243793610861,0.0456875682346798,0.00156643091090331,0.0342953434281103,0.00137656049746048,0.0601177196563345,0.00113922248065695,0.0420088289742251,0.00175630132434613,3
0.0390895713675417,0.00196990553946931,0.0468030569136564,0.00159016471258366,0.0346038828499549,0.00118669008401766,0.0647932785873641,0.00128162529073907,0.0461385104666065,0.00137656049746048,3
0.0351260264869227,0.00189870413442825,0.0438125979019319,0.00166136611762472,0.0334409265676176,0.00123415768737836,0.0607347985000237,0.00132909289409978,0.0409170740969288,0.00109175487729625,3
0.0498884511321023,0.00301419281340485,0.0573883324630939,0.00284805620164238,0.047918545592633,0.00265818578819955,0.0820240186073005,0.00215977595291214,0.0556557649404282,0.00201737314283002,3
0.0509802060093986,0.00296672521004415,0.0594531732092847,0.00256325058147814,0.0473252005506242,0.00239711396971567,0.0825461622442683,0.00180376892770684,0.0550624198984193,0.0029904590117245,3
0.0512650116295628,0.0026344519865192,0.0567712536194048,0.00239711396971567,0.0489390990648882,0.00242084777139602,0.0840176579484502,0.00182750272938719,0.0557269663454692,0.00178003512602649,3
0.0587174253571937,0.00280058859828167,0.0558219015521906,0.00253951677979779,0.055442160725305,0.0030379266150852,0.090924194237433,0.00208857454787108,0.0631319124697394,0.00194617173778896,3
0.0564152465941995,0.00337019983861015,0.0600939858546542,0.00280058859828167,0.0548488156832962,0.00265818578819955,0.091327668865999,0.00294299140836379,0.0646983433806427,0.00194617173778896,3
0.0467555893102957,0.00296672521004415,0.0504580623724308,0.00208857454787108,0.0496036455119381,0.00272938719324061,0.0857976930744767,0.00213604215123178,0.0608772013101058,0.00144776190250154,3
0.0490103004699293,0.0037499406654958,0.0617078843689182,0.00287179000332273,0.0435040584800873,0.00232591256467461,0.0711539374376988,0.00182750272938719,0.0477049413775099,0.00123415768737836,3
0.0482033512127973,0.00356007025205297,0.0607822661033844,0.00282432239996203,0.0432667204632838,0.00166136611762472,0.0720320880998718,0.00135282669578013,0.0465657188968529,0.00106802107561589,3
0.0483694878245597,0.00346513504533156,0.0607822661033844,0.00272938719324061,0.0424360374044714,0.00173256752266578,0.0684482840461385,0.00173256752266578,0.0456638344329995,0.00106802107561589,3
0.0586224901504723,0.00403474628566004,0.064983149000807,0.00242084777139602,0.0524517017135805,0.0026344519865192,0.0828784354677932,0.00180376892770684,0.0568424550244458,0.00230217876299426,3
0.05510988750178,0.00412968149238145,0.0676413347890065,0.00256325058147814,0.0526415721270233,0.00322779702852803,0.0868182465467319,0.00208857454787108,0.0604974604832202,0.00156643091090331,3
0.0567237860160441,0.00377367446717615,0.0661461052831443,0.0030379266150852,0.0533298523757536,0.00284805620164238,0.0892628281198082,0.0022784449613139,0.0617553519722789,0.00306166041676556,3
0.0554658945269853,0.00405848008734039,0.06787867280581,0.0030379266150852,0.0520244932833341,0.00289552380500309,0.086557174728248,0.00253951677979779,0.0586936915555134,0.00182750272938719,3
0.0414392177338966,0.00225471115963355,0.0514074144396449,0.00170883372098543,0.0374044714482366,0.0011154886789766,0.0616604167655575,0.00104428727393554,0.0405373332700432,0.000759481653771301,3
0.0427920444296768,0.00258698438315849,0.0524517017135805,0.00215977595291214,0.0381876869036882,0.0015189633075426,0.0615654815588361,0.000925618265533773,0.0411544121137324,0.000617078843689182,3
0.0433853894716856,0.00277685479660132,0.0529026439455072,0.00244458157307637,0.0393743769877059,0.00140029429914084,0.0662885080932264,0.00118669008401766,0.0431955190582428,0.000735747852090948,3
0.064650875777282,0.00439075331086533,0.0733374471922913,0.00334646603692979,0.0555845635353871,0.00384487587221721,0.107371718801918,0.0033939336402905,0.081454407366972,0.0022309773579532,3
0.0613044097403522,0.00408221388902074,0.0705368585940096,0.00327526463188874,0.0529975791522286,0.00351260264869227,0.0985664783785067,0.00287179000332273,0.0784402145535672,0.00189870413442825,3
0.0619214885840414,0.0041059476907011,0.0707741966108131,0.00310912802012626,0.0532823847723928,0.00337019983861015,0.103336972516258,0.00268191958987991,0.080243983481274,0.00218350975459249,3
0.0626572364361323,0.00436701950918498,0.0702995205772061,0.00341766744197085,0.0552997579152229,0.0037499406654958,0.107656524422082,0.00261071818483885,0.0789148905871743,0.00261071818483885,3
0.0435277922817677,0.00242084777139602,0.0553946931219443,0.0018749703327479,0.0337019983861015,0.00135282669578013,0.0629657758579769,0.000830683058812361,0.0460198414582048,0.000474676033607063,3
0.0443347415388997,0.00244458157307637,0.0575070014714957,0.00201737314283002,0.0347225518583567,0.0014714957041819,0.0663834432999478,0.00132909289409978,0.0505292637774719,0.000664546447049888,3
0.0463521146817297,0.00282432239996203,0.0611145393269094,0.00206484074619072,0.0357193715289315,0.00149522950586225,0.0688280248730242,0.0011629562823373,0.0504105947690701,0.000925618265533773,3
0.0502919257606683,0.00332273223524944,0.0599041154412114,0.00258698438315849,0.0479422793943134,0.00251578297811743,0.0797455736459866,0.00182750272938719,0.0536146579959178,0.00123415768737836,3
0.0477998765842313,0.00306166041676556,0.0540656002278445,0.0022309773579532,0.0474913371623867,0.0018749703327479,0.0827360326577111,0.0018749703327479,0.0587411591588741,0.00166136611762472,3
0.0473726681539849,0.00287179000332273,0.0540893340295249,0.00258698438315849,0.0481796174111169,0.00242084777139602,0.08064745810984,0.00261071818483885,0.0572933972563725,0.00189870413442825,3
0.051478615844686,0.00320406322684768,0.0580766127118242,0.00282432239996203,0.0506004651825129,0.00244458157307637,0.0850619452223857,0.00249204917643708,0.0611382731285897,0.00204110694451037,3
0.060687330896663,0.00389234347557792,0.0708928656192149,0.00353633645037262,0.0574120662647743,0.00308539421844591,0.0965253714339963,0.00249204917643708,0.0672853277638012,0.0026344519865192,3
0.0609009351117862,0.00398727868229933,0.0700384487587222,0.00360753785541368,0.0571509944462904,0.00296672521004415,0.0971661840793658,0.0026344519865192,0.0672141263587601,0.00289552380500309,3
0.0591208999857597,0.00360753785541368,0.0673802629705226,0.00353633645037262,0.0583376845303081,0.00296672521004415,0.0955048179617411,0.00277685479660132,0.0650068828024873,0.00318032942516732,3
0.0569848578345279,0.00294299140836379,0.0626572364361323,0.00341766744197085,0.057056059239569,0.00284805620164238,0.0927042293634595,0.00315659562348697,0.063036977263018,0.00246831537475673,3
0.0702520529738454,0.00446195471590639,0.0810271989367257,0.0033939336402905,0.0688280248730242,0.00365500545877439,0.113945981867376,0.00356007025205297,0.0809559975316846,0.00318032942516732,3
0.0681634784259743,0.00422461669910286,0.0692552333032705,0.00422461669910286,0.0671429249537191,0.00348886884701191,0.110409645417003,0.00363127165709403,0.0731001091754877,0.00289552380500309,3
0.0698723121469597,0.00434328570750463,0.0807661271182418,0.0037974082688565,0.0666445151184317,0.00337019983861015,0.11491906773627,0.00341766744197085,0.0840888593534913,0.00289552380500309,3
0.0723406275217164,0.00524517017135805,0.0870555845635354,0.00510276736127593,0.0659325010680211,0.00391607727725827,0.113898514264015,0.00389234347557792,0.0790810271989367,0.00310912802012626,3
0.0745716048796696,0.00484169554279204,0.0893340295248493,0.00467555893102957,0.0666919827217924,0.00367873926045474,0.116746570465657,0.00315659562348697,0.082190155219063,0.00253951677979779,3
0.0751174823183178,0.00555370959320264,0.0910665970475151,0.0049128969478331,0.0684720178478189,0.0041059476907011,0.119570892865619,0.00412968149238145,0.084136326956852,0.00325153083020838,3
0.0553709593202639,0.00363127165709403,0.0669767883419566,0.00308539421844591,0.0534010537807946,0.00258698438315849,0.0909479280391133,0.00277685479660132,0.0630132434613376,0.00182750272938719,3
0.0512412778278825,0.0029904590117245,0.0599753168462524,0.00225471115963355,0.0510039398110789,0.00237338016803532,0.0897612379550956,0.00189870413442825,0.061897754782361,0.00135282669578013,3
0.0503631271657094,0.00322779702852803,0.0588360943655955,0.00242084777139602,0.0497935159253809,0.00253951677979779,0.0868657141500926,0.00170883372098543,0.0601414534580149,0.00137656049746048,3
0.06182655337732,0.00393981107893862,0.0736934542174966,0.00294299140836379,0.0580291451084635,0.00372620686381545,0.112142212939669,0.00337019983861015,0.113186500213604,0.00306166041676556,3
0.0676888023923672,0.0041059476907011,0.0798879764560688,0.00327526463188874,0.0640812645369535,0.0033939336402905,0.11629562823373,0.00308539421844591,0.0844923339820573,0.00246831537475673,3
0.0596193098210471,0.00367873926045474,0.0652679546209712,0.00280058859828167,0.0537095932026392,0.00258698438315849,0.098922485403712,0.00218350975459249,0.0705605923956899,0.00161389851426401,3
0.0603550576731381,0.00358380405373333,0.0672378601604405,0.0026344519865192,0.0642711349503964,0.00353633645037262,0.109128020126264,0.00327526463188874,0.0763991076090568,0.00272938719324061,3
0.0652204870176105,0.00401101248397968,0.0711302036360184,0.00284805620164238,0.0660511700764228,0.00360753785541368,0.11489533393459,0.00334646603692979,0.08064745810984,0.00265818578819955,3
0.0427683106279964,0.0022784449613139,0.0572459296530118,0.00175630132434613,0.0367873926045474,0.00109175487729625,0.0688517586747045,0.000949352067214127,0.0508615370009968,0.000284805620164238,3
0.041866426164143,0.00244458157307637,0.0529501115488679,0.00194617173778896,0.041534152940618,0.00199363934114967,0.0848008734039019,0.00137656049746048,0.0636065885033465,0.000759481653771301,3
0.0474201357573456,0.00310912802012626,0.0603787914748184,0.00225471115963355,0.0473489343523046,0.00213604215123178,0.0938197180424361,0.00192243793610861,0.0711302036360184,0.00132909289409978,3
0.0444771443489818,0.00289552380500309,0.0579579437034224,0.00215977595291214,0.0432667204632838,0.00204110694451037,0.0859875634879195,0.00154269710922296,0.0693027009066312,0.00090188446385342,3
0.0395405135994684,0.00277685479660132,0.0562016423790763,0.00166136611762472,0.0420088289742251,0.00128162529073907,0.0868657141500926,0.0015189633075426,0.0578392746950207,0.000925618265533773,3
0.0491764370816917,0.00287179000332273,0.0635116532966251,0.00246831537475673,0.0474913371623867,0.00208857454787108,0.0883372098542745,0.00159016471258366,0.066193572886505,0.000996819670574833,3
0.0460910428632458,0.00334646603692979,0.0596193098210471,0.00272938719324061,0.0469217259220582,0.0022784449613139,0.0893340295248493,0.00163763231594437,0.070228319172165,0.00102055347225519,3
0.0461385104666065,0.00291925760668344,0.0591208999857597,0.00270565339156026,0.0468979921203778,0.00234964636635496,0.0863673043148051,0.00180376892770684,0.0663597094982674,0.000712014050410595,3
0.0458062372430816,0.00289552380500309,0.0582190155219063,0.00237338016803532,0.0447856837708264,0.00194617173778896,0.085417952247591,0.00175630132434613,0.0640575307352732,0.00106802107561589,3
0.0701333839654436,0.00548250818816158,0.0869843831584943,0.00455688992262781,0.0641999335453553,0.00318032942516732,0.112308349551431,0.00313286182180662,0.07863008496701,0.00225471115963355,3
0.0684957516494992,0.00536383917975981,0.08736412398538,0.00405848008734039,0.0654103574310533,0.00377367446717615,0.111145393269094,0.00313286182180662,0.0805525229031186,0.00230217876299426,3
0.0386148953339346,0.00204110694451037,0.044690748564105,0.00109175487729625,0.035956709545735,0.00125789148905872,0.067000522143637,0.000996819670574833,0.0492476384867328,0.000617078843689182,3
0.0300232591256468,0.00121042388569801,0.0375231404566383,0.000949352067214127,0.0276736127592918,0.000640812645369535,0.0517634214648502,0.000688280248730241,0.0363364503726207,0.000213604215123178,3
0.0346038828499549,0.00175630132434613,0.0420325627759054,0.0011154886789766,0.0310675463995823,0.000925618265533773,0.0591208999857597,0.000593345042008829,0.0437651302985712,0.000474676033607063,3
0.0304267337542128,0.00144776190250154,0.0364076517776617,0.000806949257132007,0.0285042958181041,0.00104428727393554,0.0533061185740732,0.000522143636967769,0.0372146010347938,0.000545877438648123,3
0.0301893957374092,0.00113922248065695,0.0376180756633598,0.00135282669578013,0.0280533535861774,0.00109175487729625,0.0575544690748564,0.000617078843689182,0.0400863910381165,0.000522143636967769,3
0.0308776759861395,0.00144776190250154,0.0400151896330754,0.000996819670574833,0.0287416338349077,0.00118669008401766,0.0588835619689562,0.000759481653771301,0.0415104191389377,0.0014714957041819,3
0.0328713153272891,0.00196990553946931,0.0430293824464803,0.00109175487729625,0.0318270280533536,0.000830683058812361,0.0597854464328096,0.000806949257132007,0.0420562965775858,0.000332273223524944,3
0.033132387145773,0.00173256752266578,0.0440736697204158,0.00109175487729625,0.0319694308634357,0.000735747852090948,0.0604025252764988,0.000878150662173067,0.0417002895523805,0.000166136611762472,3
0.0337494659894622,0.00196990553946931,0.0448331513741871,0.0011629562823373,0.0309251435895002,0.000759481653771301,0.0590496985807187,0.000593345042008829,0.0415104191389377,7.12014050410593e-05,3
0.0331086533440927,0.00168509991930507,0.0466131865002136,0.00135282669578013,0.032325437888641,0.00090188446385342,0.0579816775051028,0.000522143636967769,0.0397066502112308,0.000308539421844591,3
0.0305216689609342,0.0014714957041819,0.0408696064935681,0.00097308586889448,0.03427160962643,0.000925618265533773,0.0581003465135045,0.00135282669578013,0.0407034698818057,7.12014050410593e-05,3
0.0285517634214648,0.00244458157307637,0.0398253192196326,0.00118669008401766,0.0265106564769545,0.000878150662173067,0.0549200170883372,0.000498409835287416,0.038709830540656,0,3
0.0512650116295628,0.0030379266150852,0.0641524659419946,0.00249204917643708,0.0394218445910666,0.0014714957041819,0.0632031138747805,0.00142402810082119,0.0399439882280344,0.000854416860492714,3
0.0573883324630939,0.00393981107893862,0.0669767883419566,0.00320406322684768,0.0593107703992025,0.00320406322684768,0.0938434518441164,0.00277685479660132,0.0617078843689182,0.00234964636635496,3
0.0542554706412873,0.00356007025205297,0.0680448094175725,0.00251578297811743,0.0473014667489438,0.00196990553946931,0.0754497555418427,0.0011154886789766,0.0443110077372193,0.000806949257132007,3
0.0519532918782931,0.00382114207053686,0.0656002278444961,0.00261071818483885,0.0456401006313191,0.00204110694451037,0.0718896852897897,0.00173256752266578,0.0427683106279964,0.000949352067214127,3
0.0552522903118622,0.00424835050078322,0.0645559405705606,0.00306166041676556,0.055442160725305,0.00287179000332273,0.0829733706745147,0.00284805620164238,0.0529975791522286,0.00182750272938719,3
0.112830493188399,0.00811696017468078,0.145440736697204,0.00733374471922913,0.0936298476289932,0.00579104761000617,0.145796743722409,0.00605211942849006,0.0868657141500926,0.00427208430246357,3
0.0560592395689942,0.00356007025205297,0.0703232543788864,0.00296672521004415,0.0466606541035743,0.0022784449613139,0.0679498742108511,0.00192243793610861,0.0565339156026012,0.00173256752266578,3
0.0583376845303081,0.00417714909574216,0.0746902738880714,0.00341766744197085,0.0486068258413633,0.00244458157307637,0.0686381544595813,0.00215977595291214,0.0589310295723169,0.00180376892770684,3
0.0551573551051407,0.00393981107893862,0.0668581193335548,0.00239711396971567,0.0487017610480847,0.00282432239996203,0.077016186452746,0.00225471115963355,0.0530687805572697,0.00159016471258366,3
0.0549674846916979,0.00363127165709403,0.0686856220629421,0.00289552380500309,0.0467318555086154,0.00213604215123178,0.0661698390848246,0.00208857454787108,0.0539231974177624,0.00142402810082119,3
0.0450230217876299,0.00261071818483885,0.0543978734513694,0.00159016471258366,0.0431717852565624,0.00208857454787108,0.0769924526510657,0.00161389851426401,0.0556082973370675,0.00113922248065695,3
0.0469217259220582,0.00220724355627284,0.0522618313001377,0.00173256752266578,0.045901172449803,0.00208857454787108,0.082997104476195,0.00159016471258366,0.0591208999857597,0.00215977595291214,3
0.0510988750178004,0.00284805620164238,0.0576019366782171,0.00204110694451037,0.0557269663454692,0.00265818578819955,0.0937722504390753,0.00253951677979779,0.0687093558646224,0.00182750272938719,3
0.0536621255992785,0.00318032942516732,0.0572933972563725,0.00277685479660132,0.0602363886647363,0.00268191958987991,0.0979019319314568,0.00239711396971567,0.0690653628898277,0.00173256752266578,3
0.0434565908767266,0.00218350975459249,0.0488916314615275,0.00175630132434613,0.049461242701856,0.00211230834955143,0.0851094128257465,0.00204110694451037,0.057863008496701,0.00192243793610861,3
0.0363839179759814,0.00163763231594437,0.0419138937675037,0.0011154886789766,0.0360279109507761,0.00125789148905872,0.0697536431385579,0.00135282669578013,0.0528789101438268,0.000996819670574833,3
0.0355057673138083,0.0014714957041819,0.0423885698011107,0.000949352067214127,0.0358143067356529,0.00121042388569801,0.0663834432999478,0.000878150662173067,0.0492001708833721,0.000522143636967769,3
0.03830635591209,0.00218350975459249,0.0453552950111549,0.00173256752266578,0.0384487587221721,0.00149522950586225,0.0690416290881473,0.00123415768737836,0.0501020553472255,0.00090188446385342,3
0.0353396307020459,0.00194617173778896,0.0433616556700052,0.0015189633075426,0.0401575924431575,0.00135282669578013,0.0735510514074144,0.00113922248065695,0.0556794987421085,0.000759481653771301,3
0.0537807946076803,0.00332273223524944,0.064650875777282,0.00280058859828167,0.0518108890682109,0.00237338016803532,0.0809559975316846,0.00180376892770684,0.0531399819623107,0.00123415768737836,3
0.0468742583186975,0.00275312099492097,0.052214363696777,0.00249204917643708,0.0414866853372573,0.00204110694451037,0.0679736080125315,0.00130535909241942,0.0465894526985332,0.0011629562823373,3
0.049532444106897,0.00296672521004415,0.0584800873403902,0.00239711396971567,0.0477998765842313,0.00234964636635496,0.0793183652157403,0.00159016471258366,0.0550624198984193,0.00144776190250154,3
0.0526415721270233,0.00367873926045474,0.0641761997436749,0.00332273223524944,0.0509564722077182,0.00251578297811743,0.0805525229031186,0.00244458157307637,0.0579579437034224,0.00173256752266578,3
0.0481558836094366,0.00291925760668344,0.0556794987421085,0.00237338016803532,0.0488441638581668,0.00280058859828167,0.0855603550576731,0.00206484074619072,0.0601177196563345,0.00135282669578013,3
0.0394930459961077,0.00242084777139602,0.0469217259220582,0.00159016471258366,0.0352446954953244,0.0011629562823373,0.0600465182512935,0.000522143636967769,0.0397541178145915,0.000356007025205297,3
0.0384487587221721,0.00218350975459249,0.0476100061707884,0.00166136611762472,0.0338444011961836,0.0011154886789766,0.0567237860160441,0.000759481653771301,0.0382114207053686,0.000356007025205297,3
0.0356956377272512,0.00180376892770684,0.0425309726111929,0.00128162529073907,0.0345564152465942,0.000996819670574833,0.0586936915555134,0.000617078843689182,0.0384962263255328,0.000189870413442825,3
0.0448094175725068,0.00284805620164238,0.0538519960127213,0.00192243793610861,0.0419613613708644,0.00189870413442825,0.0673802629705226,0.00163763231594437,0.0451416907960317,0.000996819670574833,3
0.0536621255992785,0.00353633645037262,0.0639863293302321,0.00356007025205297,0.0503156595623487,0.00232591256467461,0.0828072340627522,0.00201737314283002,0.0535671903925571,0.00156643091090331,3
0.0531162481606304,0.00353633645037262,0.0655764940428158,0.0030379266150852,0.0493663074951346,0.00239711396971567,0.0777282005031566,0.00180376892770684,0.0517871552665306,0.00144776190250154,3
0.0487729624531257,0.00289552380500309,0.0538519960127213,0.0022784449613139,0.0505767313808326,0.00211230834955143,0.0815493425736935,0.00175630132434613,0.051478615844686,0.00137656049746048,3
0.0504580623724308,0.00270565339156026,0.0595006408126454,0.00196990553946931,0.0458537048464423,0.00163763231594437,0.0707504628091328,0.00166136611762472,0.0461622442682869,0.00140029429914084,3
0.029168842265154,0.00118669008401766,0.0318744956567143,0.000878150662173067,0.0293587126785969,0.000878150662173067,0.0509564722077182,0.000712014050410595,0.0344852138415531,0.000854416860492714,3
0.0307827407794181,0.00118669008401766,0.0345564152465942,0.000949352067214127,0.0310675463995823,0.000783215455451654,0.0533298523757536,0.000712014050410595,0.0355057673138083,0.000830683058812361,3
0.041059476907011,0.00230217876299426,0.0441211373237765,0.00159016471258366,0.0420088289742251,0.00208857454787108,0.0726016993402003,0.00159016471258366,0.0506241989841933,0.0011629562823373,3
0.0440262021170551,0.00232591256467461,0.0477049413775099,0.00196990553946931,0.0440974035220962,0.0018749703327479,0.0772535244695495,0.0014714957041819,0.0544453410547302,0.0011629562823373,3
0.0430293824464803,0.00230217876299426,0.045497697821237,0.00206484074619072,0.0481796174111169,0.00182750272938719,0.0801965158779133,0.00178003512602649,0.052689039730384,0.00130535909241942,3
0.0468030569136564,0.00265818578819955,0.0519058242749324,0.00199363934114967,0.0491052356766507,0.00194617173778896,0.0840888593534913,0.00206484074619072,0.0600939858546542,0.00137656049746048,3
0.0408933402952485,0.00185123653106755,0.0441448711254569,0.00104428727393554,0.040252527649879,0.00161389851426401,0.0691840318982295,0.00137656049746048,0.0499121849337827,0.000925618265533773,3
