@relation ThresholdCurve

@attribute Instance_number numeric
@attribute 'True Positives' numeric
@attribute 'False Negatives' numeric
@attribute 'False Positives' numeric
@attribute 'True Negatives' numeric
@attribute 'False Positive Rate' numeric
@attribute 'True Positive Rate' numeric
@attribute Precision numeric
@attribute Recall numeric
@attribute Fallout numeric
@attribute FMeasure numeric
@attribute 'Sample Size' numeric
@attribute Lift numeric
@attribute Threshold numeric

@data
0,23,0,390,0,1,1,0.05569,1,0.94431,0.105505,1,1,0
1,23,0,389,1,0.997436,1,0.055825,1,0.944175,0.105747,0.997579,1.002427,0
2,23,0,388,2,0.994872,1,0.055961,1,0.944039,0.105991,0.995157,1.004866,0
3,23,0,387,3,0.992308,1,0.056098,1,0.943902,0.106236,0.992736,1.007317,0
4,23,0,386,4,0.989744,1,0.056235,1,0.943765,0.106481,0.990315,1.00978,0
5,23,0,385,5,0.987179,1,0.056373,1,0.943627,0.106729,0.987893,1.012255,0
6,23,0,384,6,0.984615,1,0.056511,1,0.943489,0.106977,0.985472,1.014742,0
7,23,0,383,7,0.982051,1,0.05665,1,0.94335,0.107226,0.983051,1.017241,0
8,23,0,382,8,0.979487,1,0.05679,1,0.94321,0.107477,0.98063,1.019753,0
9,23,0,381,9,0.976923,1,0.056931,1,0.943069,0.107728,0.978208,1.022277,0
10,23,0,380,10,0.974359,1,0.057072,1,0.942928,0.107981,0.975787,1.024814,0
11,23,0,379,11,0.971795,1,0.057214,1,0.942786,0.108235,0.973366,1.027363,0
12,23,0,378,12,0.969231,1,0.057357,1,0.942643,0.108491,0.970944,1.029925,0
13,23,0,377,13,0.966667,1,0.0575,1,0.9425,0.108747,0.968523,1.0325,0
14,23,0,376,14,0.964103,1,0.057644,1,0.942356,0.109005,0.966102,1.035088,0
15,23,0,375,15,0.961538,1,0.057789,1,0.942211,0.109264,0.96368,1.037688,0
16,23,0,374,16,0.958974,1,0.057935,1,0.942065,0.109524,0.961259,1.040302,0
17,23,0,373,17,0.95641,1,0.058081,1,0.941919,0.109785,0.958838,1.042929,0
18,23,0,372,18,0.953846,1,0.058228,1,0.941772,0.110048,0.956416,1.04557,0
19,23,0,371,19,0.951282,1,0.058376,1,0.941624,0.110312,0.953995,1.048223,0
20,23,0,370,20,0.948718,1,0.058524,1,0.941476,0.110577,0.951574,1.050891,0
21,23,0,369,21,0.946154,1,0.058673,1,0.941327,0.110843,0.949153,1.053571,0
22,23,0,368,22,0.94359,1,0.058824,1,0.941176,0.111111,0.946731,1.056266,0
23,23,0,367,23,0.941026,1,0.058974,1,0.941026,0.11138,0.94431,1.058974,0
24,23,0,366,24,0.938462,1,0.059126,1,0.940874,0.11165,0.941889,1.061697,0
25,23,0,365,25,0.935897,1,0.059278,1,0.940722,0.111922,0.939467,1.064433,0
26,23,0,364,26,0.933333,1,0.059432,1,0.940568,0.112195,0.937046,1.067183,0
27,23,0,363,27,0.930769,1,0.059585,1,0.940415,0.112469,0.934625,1.069948,0
28,23,0,362,28,0.928205,1,0.05974,1,0.94026,0.112745,0.932203,1.072727,0
29,23,0,361,29,0.925641,1,0.059896,1,0.940104,0.113022,0.929782,1.075521,0
30,23,0,360,30,0.923077,1,0.060052,1,0.939948,0.1133,0.927361,1.078329,0
31,23,0,359,31,0.920513,1,0.060209,1,0.939791,0.11358,0.924939,1.081152,0
32,23,0,358,32,0.917949,1,0.060367,1,0.939633,0.113861,0.922518,1.08399,0
33,23,0,357,33,0.915385,1,0.060526,1,0.939474,0.114144,0.920097,1.086842,0
34,23,0,356,34,0.912821,1,0.060686,1,0.939314,0.114428,0.917676,1.08971,0
35,23,0,355,35,0.910256,1,0.060847,1,0.939153,0.114713,0.915254,1.092593,0
36,23,0,354,36,0.907692,1,0.061008,1,0.938992,0.115,0.912833,1.095491,0
37,23,0,353,37,0.905128,1,0.06117,1,0.93883,0.115288,0.910412,1.098404,0
38,23,0,352,38,0.902564,1,0.061333,1,0.938667,0.115578,0.90799,1.101333,0
39,23,0,351,39,0.9,1,0.061497,1,0.938503,0.115869,0.905569,1.104278,0
40,23,0,350,40,0.897436,1,0.061662,1,0.938338,0.116162,0.903148,1.107239,0
41,23,0,349,41,0.894872,1,0.061828,1,0.938172,0.116456,0.900726,1.110215,0
42,23,0,348,42,0.892308,1,0.061995,1,0.938005,0.116751,0.898305,1.113208,0
43,23,0,347,43,0.889744,1,0.062162,1,0.937838,0.117048,0.895884,1.116216,0
44,23,0,346,44,0.887179,1,0.062331,1,0.937669,0.117347,0.893462,1.119241,0
45,23,0,345,45,0.884615,1,0.0625,1,0.9375,0.117647,0.891041,1.122283,0
46,23,0,344,46,0.882051,1,0.06267,1,0.93733,0.117949,0.88862,1.125341,0
47,23,0,343,47,0.879487,1,0.062842,1,0.937158,0.118252,0.886199,1.128415,0
48,23,0,342,48,0.876923,1,0.063014,1,0.936986,0.118557,0.883777,1.131507,0
49,23,0,341,49,0.874359,1,0.063187,1,0.936813,0.118863,0.881356,1.134615,0
50,23,0,340,50,0.871795,1,0.063361,1,0.936639,0.119171,0.878935,1.137741,0
51,23,0,339,51,0.869231,1,0.063536,1,0.936464,0.119481,0.876513,1.140884,0
52,23,0,338,52,0.866667,1,0.063712,1,0.936288,0.119792,0.874092,1.144044,0
53,23,0,337,53,0.864103,1,0.063889,1,0.936111,0.120104,0.871671,1.147222,0
54,23,0,336,54,0.861538,1,0.064067,1,0.935933,0.120419,0.869249,1.150418,0
55,23,0,335,55,0.858974,1,0.064246,1,0.935754,0.120735,0.866828,1.153631,0
56,23,0,334,56,0.85641,1,0.064426,1,0.935574,0.121053,0.864407,1.156863,0
57,23,0,333,57,0.853846,1,0.064607,1,0.935393,0.121372,0.861985,1.160112,0
58,23,0,332,58,0.851282,1,0.064789,1,0.935211,0.121693,0.859564,1.16338,0
59,23,0,331,59,0.848718,1,0.064972,1,0.935028,0.122016,0.857143,1.166667,0
60,23,0,330,60,0.846154,1,0.065156,1,0.934844,0.12234,0.854722,1.169972,0
61,23,0,329,61,0.84359,1,0.065341,1,0.934659,0.122667,0.8523,1.173295,0
62,23,0,328,62,0.841026,1,0.065527,1,0.934473,0.122995,0.849879,1.176638,0
63,23,0,327,63,0.838462,1,0.065714,1,0.934286,0.123324,0.847458,1.18,0
64,23,0,326,64,0.835897,1,0.065903,1,0.934097,0.123656,0.845036,1.183381,0
65,23,0,325,65,0.833333,1,0.066092,1,0.933908,0.123989,0.842615,1.186782,0
66,23,0,324,66,0.830769,1,0.066282,1,0.933718,0.124324,0.840194,1.190202,0
67,23,0,323,67,0.828205,1,0.066474,1,0.933526,0.124661,0.837772,1.193642,0
68,23,0,322,68,0.825641,1,0.066667,1,0.933333,0.125,0.835351,1.197101,0
69,23,0,321,69,0.823077,1,0.06686,1,0.93314,0.125341,0.83293,1.200581,0
70,23,0,320,70,0.820513,1,0.067055,1,0.932945,0.125683,0.830508,1.204082,0
71,23,0,319,71,0.817949,1,0.067251,1,0.932749,0.126027,0.828087,1.207602,0
72,23,0,318,72,0.815385,1,0.067449,1,0.932551,0.126374,0.825666,1.211144,0
73,23,0,317,73,0.812821,1,0.067647,1,0.932353,0.126722,0.823245,1.214706,0
74,23,0,316,74,0.810256,1,0.067847,1,0.932153,0.127072,0.820823,1.218289,0
75,23,0,315,75,0.807692,1,0.068047,1,0.931953,0.127424,0.818402,1.221893,0
76,23,0,314,76,0.805128,1,0.068249,1,0.931751,0.127778,0.815981,1.225519,0
77,23,0,313,77,0.802564,1,0.068452,1,0.931548,0.128134,0.813559,1.229167,0
78,23,0,312,78,0.8,1,0.068657,1,0.931343,0.128492,0.811138,1.232836,0
79,23,0,311,79,0.797436,1,0.068862,1,0.931138,0.128852,0.808717,1.236527,0
80,23,0,310,80,0.794872,1,0.069069,1,0.930931,0.129213,0.806295,1.24024,0
81,23,0,309,81,0.792308,1,0.069277,1,0.930723,0.129577,0.803874,1.243976,0
82,23,0,308,82,0.789744,1,0.069486,1,0.930514,0.129944,0.801453,1.247734,0
83,23,0,307,83,0.787179,1,0.069697,1,0.930303,0.130312,0.799031,1.251515,0
84,23,0,306,84,0.784615,1,0.069909,1,0.930091,0.130682,0.79661,1.255319,0
85,23,0,305,85,0.782051,1,0.070122,1,0.929878,0.131054,0.794189,1.259146,0
86,23,0,304,86,0.779487,1,0.070336,1,0.929664,0.131429,0.791768,1.262997,0
87,23,0,303,87,0.776923,1,0.070552,1,0.929448,0.131805,0.789346,1.266871,0
88,23,0,302,88,0.774359,1,0.070769,1,0.929231,0.132184,0.786925,1.270769,0
89,23,0,301,89,0.771795,1,0.070988,1,0.929012,0.132565,0.784504,1.274691,0
90,23,0,300,90,0.769231,1,0.071207,1,0.928793,0.132948,0.782082,1.278638,0
91,23,0,299,91,0.766667,1,0.071429,1,0.928571,0.133333,0.779661,1.282609,0
92,23,0,298,92,0.764103,1,0.071651,1,0.928349,0.133721,0.77724,1.286604,0
93,23,0,297,93,0.761538,1,0.071875,1,0.928125,0.134111,0.774818,1.290625,0
94,23,0,296,94,0.758974,1,0.0721,1,0.9279,0.134503,0.772397,1.294671,0
95,23,0,295,95,0.75641,1,0.072327,1,0.927673,0.134897,0.769976,1.298742,0
96,23,0,294,96,0.753846,1,0.072555,1,0.927445,0.135294,0.767554,1.302839,0
97,23,0,293,97,0.751282,1,0.072785,1,0.927215,0.135693,0.765133,1.306962,0
98,23,0,292,98,0.748718,1,0.073016,1,0.926984,0.136095,0.762712,1.311111,0
99,23,0,291,99,0.746154,1,0.073248,1,0.926752,0.136499,0.760291,1.315287,0
100,23,0,290,100,0.74359,1,0.073482,1,0.926518,0.136905,0.757869,1.319489,0
101,23,0,289,101,0.741026,1,0.073718,1,0.926282,0.137313,0.755448,1.323718,0
102,23,0,288,102,0.738462,1,0.073955,1,0.926045,0.137725,0.753027,1.327974,0
103,23,0,287,103,0.735897,1,0.074194,1,0.925806,0.138138,0.750605,1.332258,0
104,23,0,286,104,0.733333,1,0.074434,1,0.925566,0.138554,0.748184,1.33657,0
105,23,0,285,105,0.730769,1,0.074675,1,0.925325,0.138973,0.745763,1.340909,0
106,23,0,284,106,0.728205,1,0.074919,1,0.925081,0.139394,0.743341,1.345277,0
107,23,0,283,107,0.725641,1,0.075163,1,0.924837,0.139818,0.74092,1.349673,0
108,23,0,282,108,0.723077,1,0.07541,1,0.92459,0.140244,0.738499,1.354098,0
109,23,0,281,109,0.720513,1,0.075658,1,0.924342,0.140673,0.736077,1.358553,0
110,23,0,280,110,0.717949,1,0.075908,1,0.924092,0.141104,0.733656,1.363036,0
111,23,0,279,111,0.715385,1,0.076159,1,0.923841,0.141538,0.731235,1.36755,0
112,23,0,278,112,0.712821,1,0.076412,1,0.923588,0.141975,0.728814,1.372093,0
113,23,0,277,113,0.710256,1,0.076667,1,0.923333,0.142415,0.726392,1.376667,0
114,23,0,276,114,0.707692,1,0.076923,1,0.923077,0.142857,0.723971,1.381271,0
115,23,0,275,115,0.705128,1,0.077181,1,0.922819,0.143302,0.72155,1.385906,0
116,23,0,274,116,0.702564,1,0.077441,1,0.922559,0.14375,0.719128,1.390572,0
117,23,0,273,117,0.7,1,0.077703,1,0.922297,0.144201,0.716707,1.39527,0
118,23,0,272,118,0.697436,1,0.077966,1,0.922034,0.144654,0.714286,1.4,0
119,23,0,271,119,0.694872,1,0.078231,1,0.921769,0.14511,0.711864,1.404762,0
120,23,0,270,120,0.692308,1,0.078498,1,0.921502,0.14557,0.709443,1.409556,0
121,23,0,269,121,0.689744,1,0.078767,1,0.921233,0.146032,0.707022,1.414384,0
122,23,0,268,122,0.687179,1,0.079038,1,0.920962,0.146497,0.7046,1.419244,0
123,23,0,267,123,0.684615,1,0.07931,1,0.92069,0.146965,0.702179,1.424138,0
124,23,0,266,124,0.682051,1,0.079585,1,0.920415,0.147436,0.699758,1.429066,0
125,23,0,265,125,0.679487,1,0.079861,1,0.920139,0.14791,0.697337,1.434028,0
126,23,0,264,126,0.676923,1,0.080139,1,0.919861,0.148387,0.694915,1.439024,0
127,23,0,263,127,0.674359,1,0.08042,1,0.91958,0.148867,0.692494,1.444056,0
128,23,0,262,128,0.671795,1,0.080702,1,0.919298,0.149351,0.690073,1.449123,0
129,23,0,261,129,0.669231,1,0.080986,1,0.919014,0.149837,0.687651,1.454225,0
130,23,0,260,130,0.666667,1,0.081272,1,0.918728,0.150327,0.68523,1.459364,0
131,23,0,259,131,0.664103,1,0.08156,1,0.91844,0.15082,0.682809,1.464539,0
132,23,0,258,132,0.661538,1,0.081851,1,0.918149,0.151316,0.680387,1.469751,0
133,23,0,257,133,0.658974,1,0.082143,1,0.917857,0.151815,0.677966,1.475,0
134,23,0,256,134,0.65641,1,0.082437,1,0.917563,0.152318,0.675545,1.480287,0
135,23,0,255,135,0.653846,1,0.082734,1,0.917266,0.152824,0.673123,1.485612,0
136,23,0,254,136,0.651282,1,0.083032,1,0.916968,0.153333,0.670702,1.490975,0
137,23,0,253,137,0.648718,1,0.083333,1,0.916667,0.153846,0.668281,1.496377,0
138,23,0,252,138,0.646154,1,0.083636,1,0.916364,0.154362,0.66586,1.501818,0
139,23,0,251,139,0.64359,1,0.083942,1,0.916058,0.154882,0.663438,1.507299,0
140,23,0,250,140,0.641026,1,0.084249,1,0.915751,0.155405,0.661017,1.512821,0
141,23,0,249,141,0.638462,1,0.084559,1,0.915441,0.155932,0.658596,1.518382,0
142,23,0,248,142,0.635897,1,0.084871,1,0.915129,0.156463,0.656174,1.523985,0
143,23,0,247,143,0.633333,1,0.085185,1,0.914815,0.156997,0.653753,1.52963,0
144,23,0,246,144,0.630769,1,0.085502,1,0.914498,0.157534,0.651332,1.535316,0
145,23,0,245,145,0.628205,1,0.085821,1,0.914179,0.158076,0.64891,1.541045,0
146,23,0,244,146,0.625641,1,0.086142,1,0.913858,0.158621,0.646489,1.546816,0
147,23,0,243,147,0.623077,1,0.086466,1,0.913534,0.15917,0.644068,1.552632,0
148,23,0,242,148,0.620513,1,0.086792,1,0.913208,0.159722,0.641646,1.558491,0
149,23,0,241,149,0.617949,1,0.087121,1,0.912879,0.160279,0.639225,1.564394,0
150,23,0,240,150,0.615385,1,0.087452,1,0.912548,0.160839,0.636804,1.570342,0
151,23,0,239,151,0.612821,1,0.087786,1,0.912214,0.161404,0.634383,1.576336,0
152,23,0,238,152,0.610256,1,0.088123,1,0.911877,0.161972,0.631961,1.582375,0
153,23,0,237,153,0.607692,1,0.088462,1,0.911538,0.162544,0.62954,1.588462,0
154,23,0,236,154,0.605128,1,0.088803,1,0.911197,0.163121,0.627119,1.594595,0
155,23,0,235,155,0.602564,1,0.089147,1,0.910853,0.163701,0.624697,1.600775,0
156,23,0,234,156,0.6,1,0.089494,1,0.910506,0.164286,0.622276,1.607004,0
157,23,0,233,157,0.597436,1,0.089844,1,0.910156,0.164875,0.619855,1.613281,0
158,23,0,232,158,0.594872,1,0.090196,1,0.909804,0.165468,0.617433,1.619608,0
159,23,0,231,159,0.592308,1,0.090551,1,0.909449,0.166065,0.615012,1.625984,0
160,23,0,230,160,0.589744,1,0.090909,1,0.909091,0.166667,0.612591,1.632411,0
161,23,0,229,161,0.587179,1,0.09127,1,0.90873,0.167273,0.610169,1.638889,0
162,23,0,228,162,0.584615,1,0.091633,1,0.908367,0.167883,0.607748,1.645418,0
163,23,0,227,163,0.582051,1,0.092,1,0.908,0.168498,0.605327,1.652,0
164,23,0,226,164,0.579487,1,0.092369,1,0.907631,0.169118,0.602906,1.658635,0
165,23,0,225,165,0.576923,1,0.092742,1,0.907258,0.169742,0.600484,1.665323,0
166,23,0,224,166,0.574359,1,0.093117,1,0.906883,0.17037,0.598063,1.672065,0
167,23,0,223,167,0.571795,1,0.093496,1,0.906504,0.171004,0.595642,1.678862,0
168,23,0,222,168,0.569231,1,0.093878,1,0.906122,0.171642,0.59322,1.685714,0
169,23,0,221,169,0.566667,1,0.094262,1,0.905738,0.172285,0.590799,1.692623,0
170,23,0,220,170,0.564103,1,0.09465,1,0.90535,0.172932,0.588378,1.699588,0
171,23,0,219,171,0.561538,1,0.095041,1,0.904959,0.173585,0.585956,1.706612,0
172,23,0,218,172,0.558974,1,0.095436,1,0.904564,0.174242,0.583535,1.713693,0
173,23,0,217,173,0.55641,1,0.095833,1,0.904167,0.174905,0.581114,1.720833,0
174,23,0,216,174,0.553846,1,0.096234,1,0.903766,0.175573,0.578692,1.728033,0
175,23,0,215,175,0.551282,1,0.096639,1,0.903361,0.176245,0.576271,1.735294,0
176,23,0,214,176,0.548718,1,0.097046,1,0.902954,0.176923,0.57385,1.742616,0
177,23,0,213,177,0.546154,1,0.097458,1,0.902542,0.177606,0.571429,1.75,0
178,23,0,212,178,0.54359,1,0.097872,1,0.902128,0.178295,0.569007,1.757447,0
179,23,0,211,179,0.541026,1,0.098291,1,0.901709,0.178988,0.566586,1.764957,0
180,23,0,210,180,0.538462,1,0.098712,1,0.901288,0.179688,0.564165,1.772532,0
181,23,0,209,181,0.535897,1,0.099138,1,0.900862,0.180392,0.561743,1.780172,0
182,23,0,208,182,0.533333,1,0.099567,1,0.900433,0.181102,0.559322,1.787879,0
183,23,0,207,183,0.530769,1,0.1,1,0.9,0.181818,0.556901,1.795652,0
184,23,0,206,184,0.528205,1,0.100437,1,0.899563,0.18254,0.554479,1.803493,0
185,23,0,205,185,0.525641,1,0.100877,1,0.899123,0.183267,0.552058,1.811404,0
186,23,0,204,186,0.523077,1,0.101322,1,0.898678,0.184,0.549637,1.819383,0
187,23,0,203,187,0.520513,1,0.10177,1,0.89823,0.184739,0.547215,1.827434,0
188,23,0,202,188,0.517949,1,0.102222,1,0.897778,0.185484,0.544794,1.835556,0
189,23,0,201,189,0.515385,1,0.102679,1,0.897321,0.186235,0.542373,1.84375,0
190,23,0,200,190,0.512821,1,0.103139,1,0.896861,0.186992,0.539952,1.852018,0
191,23,0,199,191,0.510256,1,0.103604,1,0.896396,0.187755,0.53753,1.86036,0
192,23,0,198,192,0.507692,1,0.104072,1,0.895928,0.188525,0.535109,1.868778,0
193,23,0,197,193,0.505128,1,0.104545,1,0.895455,0.1893,0.532688,1.877273,0.000001
194,23,0,196,194,0.502564,1,0.105023,1,0.894977,0.190083,0.530266,1.885845,0.000001
195,23,0,195,195,0.5,1,0.105505,1,0.894495,0.190871,0.527845,1.894495,0.000001
196,23,0,194,196,0.497436,1,0.105991,1,0.894009,0.191667,0.525424,1.903226,0.000001
197,23,0,193,197,0.494872,1,0.106481,1,0.893519,0.192469,0.523002,1.912037,0.000001
198,23,0,192,198,0.492308,1,0.106977,1,0.893023,0.193277,0.520581,1.92093,0.000001
199,23,0,191,199,0.489744,1,0.107477,1,0.892523,0.194093,0.51816,1.929907,0.000001
200,23,0,190,200,0.487179,1,0.107981,1,0.892019,0.194915,0.515738,1.938967,0.000001
201,23,0,189,201,0.484615,1,0.108491,1,0.891509,0.195745,0.513317,1.948113,0.000001
202,23,0,188,202,0.482051,1,0.109005,1,0.890995,0.196581,0.510896,1.957346,0.000001
203,23,0,187,203,0.479487,1,0.109524,1,0.890476,0.197425,0.508475,1.966667,0.000001
204,23,0,186,204,0.476923,1,0.110048,1,0.889952,0.198276,0.506053,1.976077,0.000001
205,23,0,185,205,0.474359,1,0.110577,1,0.889423,0.199134,0.503632,1.985577,0.000001
206,23,0,184,206,0.471795,1,0.111111,1,0.888889,0.2,0.501211,1.995169,0.000001
207,23,0,183,207,0.469231,1,0.11165,1,0.88835,0.200873,0.498789,2.004854,0.000001
208,23,0,182,208,0.466667,1,0.112195,1,0.887805,0.201754,0.496368,2.014634,0.000001
209,23,0,181,209,0.464103,1,0.112745,1,0.887255,0.202643,0.493947,2.02451,0.000001
210,23,0,180,210,0.461538,1,0.1133,1,0.8867,0.20354,0.491525,2.034483,0.000001
211,23,0,179,211,0.458974,1,0.113861,1,0.886139,0.204444,0.489104,2.044554,0.000001
212,23,0,178,212,0.45641,1,0.114428,1,0.885572,0.205357,0.486683,2.054726,0.000001
213,23,0,177,213,0.453846,1,0.115,1,0.885,0.206278,0.484262,2.065,0.000002
214,23,0,176,214,0.451282,1,0.115578,1,0.884422,0.207207,0.48184,2.075377,0.000002
215,23,0,175,215,0.448718,1,0.116162,1,0.883838,0.208145,0.479419,2.085859,0.000002
216,23,0,174,216,0.446154,1,0.116751,1,0.883249,0.209091,0.476998,2.096447,0.000002
217,23,0,173,217,0.44359,1,0.117347,1,0.882653,0.210046,0.474576,2.107143,0.000002
218,23,0,172,218,0.441026,1,0.117949,1,0.882051,0.211009,0.472155,2.117949,0.000002
219,23,0,171,219,0.438462,1,0.118557,1,0.881443,0.211982,0.469734,2.128866,0.000002
220,23,0,170,220,0.435897,1,0.119171,1,0.880829,0.212963,0.467312,2.139896,0.000002
221,23,0,169,221,0.433333,1,0.119792,1,0.880208,0.213953,0.464891,2.151042,0.000003
222,23,0,168,222,0.430769,1,0.120419,1,0.879581,0.214953,0.46247,2.162304,0.000003
223,23,0,167,223,0.428205,1,0.121053,1,0.878947,0.215962,0.460048,2.173684,0.000003
224,23,0,166,224,0.425641,1,0.121693,1,0.878307,0.216981,0.457627,2.185185,0.000004
225,23,0,165,225,0.423077,1,0.12234,1,0.87766,0.218009,0.455206,2.196809,0.000004
226,23,0,164,226,0.420513,1,0.122995,1,0.877005,0.219048,0.452785,2.208556,0.000004
227,23,0,163,227,0.417949,1,0.123656,1,0.876344,0.220096,0.450363,2.22043,0.000004
228,23,0,162,228,0.415385,1,0.124324,1,0.875676,0.221154,0.447942,2.232432,0.000005
229,23,0,161,229,0.412821,1,0.125,1,0.875,0.222222,0.445521,2.244565,0.000005
230,23,0,160,230,0.410256,1,0.125683,1,0.874317,0.223301,0.443099,2.256831,0.000005
231,23,0,159,231,0.407692,1,0.126374,1,0.873626,0.22439,0.440678,2.269231,0.000005
232,23,0,158,232,0.405128,1,0.127072,1,0.872928,0.22549,0.438257,2.281768,0.000006
233,23,0,157,233,0.402564,1,0.127778,1,0.872222,0.226601,0.435835,2.294444,0.000006
234,23,0,156,234,0.4,1,0.128492,1,0.871508,0.227723,0.433414,2.307263,0.000006
235,23,0,155,235,0.397436,1,0.129213,1,0.870787,0.228856,0.430993,2.320225,0.000007
236,23,0,154,236,0.394872,1,0.129944,1,0.870056,0.23,0.428571,2.333333,0.000007
237,23,0,153,237,0.392308,1,0.130682,1,0.869318,0.231156,0.42615,2.346591,0.000008
238,23,0,152,238,0.389744,1,0.131429,1,0.868571,0.232323,0.423729,2.36,0.000009
239,23,0,151,239,0.387179,1,0.132184,1,0.867816,0.233503,0.421308,2.373563,0.000009
240,23,0,150,240,0.384615,1,0.132948,1,0.867052,0.234694,0.418886,2.387283,0.00001
241,23,0,149,241,0.382051,1,0.133721,1,0.866279,0.235897,0.416465,2.401163,0.00001
242,23,0,148,242,0.379487,1,0.134503,1,0.865497,0.237113,0.414044,2.415205,0.000012
243,23,0,147,243,0.376923,1,0.135294,1,0.864706,0.238342,0.411622,2.429412,0.000012
244,23,0,146,244,0.374359,1,0.136095,1,0.863905,0.239583,0.409201,2.443787,0.000013
245,23,0,145,245,0.371795,1,0.136905,1,0.863095,0.240838,0.40678,2.458333,0.000013
246,23,0,144,246,0.369231,1,0.137725,1,0.862275,0.242105,0.404358,2.473054,0.000013
247,23,0,143,247,0.366667,1,0.138554,1,0.861446,0.243386,0.401937,2.487952,0.000013
248,23,0,142,248,0.364103,1,0.139394,1,0.860606,0.244681,0.399516,2.50303,0.000013
249,23,0,141,249,0.361538,1,0.140244,1,0.859756,0.245989,0.397094,2.518293,0.000014
250,23,0,140,250,0.358974,1,0.141104,1,0.858896,0.247312,0.394673,2.533742,0.000014
251,23,0,139,251,0.35641,1,0.141975,1,0.858025,0.248649,0.392252,2.549383,0.000014
252,23,0,138,252,0.353846,1,0.142857,1,0.857143,0.25,0.389831,2.565217,0.000015
253,23,0,137,253,0.351282,1,0.14375,1,0.85625,0.251366,0.387409,2.58125,0.000016
254,23,0,136,254,0.348718,1,0.144654,1,0.855346,0.252747,0.384988,2.597484,0.000016
255,23,0,135,255,0.346154,1,0.14557,1,0.85443,0.254144,0.382567,2.613924,0.000016
256,23,0,134,256,0.34359,1,0.146497,1,0.853503,0.255556,0.380145,2.630573,0.000016
257,23,0,133,257,0.341026,1,0.147436,1,0.852564,0.256983,0.377724,2.647436,0.000017
258,23,0,132,258,0.338462,1,0.148387,1,0.851613,0.258427,0.375303,2.664516,0.000017
259,23,0,131,259,0.335897,1,0.149351,1,0.850649,0.259887,0.372881,2.681818,0.000018
260,23,0,130,260,0.333333,1,0.150327,1,0.849673,0.261364,0.37046,2.699346,0.000019
261,23,0,129,261,0.330769,1,0.151316,1,0.848684,0.262857,0.368039,2.717105,0.00002
262,23,0,128,262,0.328205,1,0.152318,1,0.847682,0.264368,0.365617,2.735099,0.000022
263,23,0,127,263,0.325641,1,0.153333,1,0.846667,0.265896,0.363196,2.753333,0.000025
264,23,0,126,264,0.323077,1,0.154362,1,0.845638,0.267442,0.360775,2.771812,0.000026
265,23,0,125,265,0.320513,1,0.155405,1,0.844595,0.269006,0.358354,2.790541,0.000027
266,23,0,124,266,0.317949,1,0.156463,1,0.843537,0.270588,0.355932,2.809524,0.000032
267,23,0,123,267,0.315385,1,0.157534,1,0.842466,0.272189,0.353511,2.828767,0.000033
268,23,0,122,268,0.312821,1,0.158621,1,0.841379,0.27381,0.35109,2.848276,0.000033
269,23,0,121,269,0.310256,1,0.159722,1,0.840278,0.275449,0.348668,2.868056,0.000035
270,23,0,120,270,0.307692,1,0.160839,1,0.839161,0.277108,0.346247,2.888112,0.000036
271,23,0,119,271,0.305128,1,0.161972,1,0.838028,0.278788,0.343826,2.908451,0.000039
272,23,0,118,272,0.302564,1,0.163121,1,0.836879,0.280488,0.341404,2.929078,0.000045
273,23,0,117,273,0.3,1,0.164286,1,0.835714,0.282209,0.338983,2.95,0.000052
274,23,0,116,274,0.297436,1,0.165468,1,0.834532,0.283951,0.336562,2.971223,0.000057
275,23,0,115,275,0.294872,1,0.166667,1,0.833333,0.285714,0.33414,2.992754,0.000058
276,23,0,114,276,0.292308,1,0.167883,1,0.832117,0.2875,0.331719,3.014599,0.000059
277,23,0,113,277,0.289744,1,0.169118,1,0.830882,0.289308,0.329298,3.036765,0.000062
278,23,0,112,278,0.287179,1,0.17037,1,0.82963,0.291139,0.326877,3.059259,0.000063
279,23,0,111,279,0.284615,1,0.171642,1,0.828358,0.292994,0.324455,3.08209,0.000066
280,23,0,110,280,0.282051,1,0.172932,1,0.827068,0.294872,0.322034,3.105263,0.000069
281,23,0,109,281,0.279487,1,0.174242,1,0.825758,0.296774,0.319613,3.128788,0.000073
282,23,0,108,282,0.276923,1,0.175573,1,0.824427,0.298701,0.317191,3.152672,0.000077
283,23,0,107,283,0.274359,1,0.176923,1,0.823077,0.300654,0.31477,3.176923,0.000079
284,23,0,106,284,0.271795,1,0.178295,1,0.821705,0.302632,0.312349,3.20155,0.000087
285,23,0,105,285,0.269231,1,0.179688,1,0.820313,0.304636,0.309927,3.226562,0.0001
286,23,0,104,286,0.266667,1,0.181102,1,0.818898,0.306667,0.307506,3.251969,0.000101
287,23,0,103,287,0.264103,1,0.18254,1,0.81746,0.308725,0.305085,3.277778,0.000102
288,23,0,102,288,0.261538,1,0.184,1,0.816,0.310811,0.302663,3.304,0.000109
289,23,0,101,289,0.258974,1,0.185484,1,0.814516,0.312925,0.300242,3.330645,0.00011
290,23,0,100,290,0.25641,1,0.186992,1,0.813008,0.315068,0.297821,3.357724,0.000139
291,23,0,99,291,0.253846,1,0.188525,1,0.811475,0.317241,0.2954,3.385246,0.000139
292,23,0,98,292,0.251282,1,0.190083,1,0.809917,0.319444,0.292978,3.413223,0.000148
293,23,0,97,293,0.248718,1,0.191667,1,0.808333,0.321678,0.290557,3.441667,0.000149
294,23,0,96,294,0.246154,1,0.193277,1,0.806723,0.323944,0.288136,3.470588,0.000156
295,23,0,95,295,0.24359,1,0.194915,1,0.805085,0.326241,0.285714,3.5,0.00016
296,23,0,94,296,0.241026,1,0.196581,1,0.803419,0.328571,0.283293,3.529915,0.000173
297,23,0,93,297,0.238462,1,0.198276,1,0.801724,0.330935,0.280872,3.560345,0.000175
298,23,0,92,298,0.235897,1,0.2,1,0.8,0.333333,0.27845,3.591304,0.000184
299,23,0,91,299,0.233333,1,0.201754,1,0.798246,0.335766,0.276029,3.622807,0.000196
300,23,0,90,300,0.230769,1,0.20354,1,0.79646,0.338235,0.273608,3.654867,0.000203
301,23,0,89,301,0.228205,1,0.205357,1,0.794643,0.340741,0.271186,3.6875,0.00023
302,23,0,88,302,0.225641,1,0.207207,1,0.792793,0.343284,0.268765,3.720721,0.000236
303,23,0,87,303,0.223077,1,0.209091,1,0.790909,0.345865,0.266344,3.754545,0.000254
304,23,0,86,304,0.220513,1,0.211009,1,0.788991,0.348485,0.263923,3.788991,0.000268
305,23,0,85,305,0.217949,1,0.212963,1,0.787037,0.351145,0.261501,3.824074,0.000391
306,23,0,84,306,0.215385,1,0.214953,1,0.785047,0.353846,0.25908,3.859813,0.000414
307,23,0,83,307,0.212821,1,0.216981,1,0.783019,0.356589,0.256659,3.896226,0.000459
308,23,0,82,308,0.210256,1,0.219048,1,0.780952,0.359375,0.254237,3.933333,0.000459
309,23,0,81,309,0.207692,1,0.221154,1,0.778846,0.362205,0.251816,3.971154,0.000483
310,23,0,80,310,0.205128,1,0.223301,1,0.776699,0.365079,0.249395,4.009709,0.000521
311,23,0,79,311,0.202564,1,0.22549,1,0.77451,0.368,0.246973,4.04902,0.0006
312,23,0,78,312,0.2,1,0.227723,1,0.772277,0.370968,0.244552,4.089109,0.000614
313,23,0,77,313,0.197436,1,0.23,1,0.77,0.373984,0.242131,4.13,0.000631
314,23,0,76,314,0.194872,1,0.232323,1,0.767677,0.377049,0.239709,4.171717,0.000634
315,23,0,75,315,0.192308,1,0.234694,1,0.765306,0.380165,0.237288,4.214286,0.00065
316,23,0,74,316,0.189744,1,0.237113,1,0.762887,0.383333,0.234867,4.257732,0.000671
317,23,0,73,317,0.187179,1,0.239583,1,0.760417,0.386555,0.232446,4.302083,0.000713
318,23,0,72,318,0.184615,1,0.242105,1,0.757895,0.389831,0.230024,4.347368,0.000723
319,23,0,71,319,0.182051,1,0.244681,1,0.755319,0.393162,0.227603,4.393617,0.000734
320,23,0,70,320,0.179487,1,0.247312,1,0.752688,0.396552,0.225182,4.44086,0.000826
321,23,0,69,321,0.176923,1,0.25,1,0.75,0.4,0.22276,4.48913,0.001042
322,23,0,68,322,0.174359,1,0.252747,1,0.747253,0.403509,0.220339,4.538462,0.001099
323,23,0,67,323,0.171795,1,0.255556,1,0.744444,0.40708,0.217918,4.588889,0.001178
324,23,0,66,324,0.169231,1,0.258427,1,0.741573,0.410714,0.215496,4.640449,0.001252
325,23,0,65,325,0.166667,1,0.261364,1,0.738636,0.414414,0.213075,4.693182,0.001327
326,23,0,64,326,0.164103,1,0.264368,1,0.735632,0.418182,0.210654,4.747126,0.001332
327,23,0,63,327,0.161538,1,0.267442,1,0.732558,0.422018,0.208232,4.802326,0.001538
328,23,0,62,328,0.158974,1,0.270588,1,0.729412,0.425926,0.205811,4.858824,0.001579
329,23,0,61,329,0.15641,1,0.27381,1,0.72619,0.429907,0.20339,4.916667,0.001816
330,23,0,60,330,0.153846,1,0.277108,1,0.722892,0.433962,0.200969,4.975904,0.001926
331,23,0,59,331,0.151282,1,0.280488,1,0.719512,0.438095,0.198547,5.036585,0.002688
332,23,0,58,332,0.148718,1,0.283951,1,0.716049,0.442308,0.196126,5.098765,0.002861
333,23,0,57,333,0.146154,1,0.2875,1,0.7125,0.446602,0.193705,5.1625,0.0032
334,23,0,56,334,0.14359,1,0.291139,1,0.708861,0.45098,0.191283,5.227848,0.003244
335,23,0,55,335,0.141026,1,0.294872,1,0.705128,0.455446,0.188862,5.294872,0.003544
336,23,0,54,336,0.138462,1,0.298701,1,0.701299,0.46,0.186441,5.363636,0.003608
337,23,0,53,337,0.135897,1,0.302632,1,0.697368,0.464646,0.184019,5.434211,0.004165
338,23,0,52,338,0.133333,1,0.306667,1,0.693333,0.469388,0.181598,5.506667,0.004442
339,23,0,51,339,0.130769,1,0.310811,1,0.689189,0.474227,0.179177,5.581081,0.004487
340,23,0,50,340,0.128205,1,0.315068,1,0.684932,0.479167,0.176755,5.657534,0.004681
341,23,0,49,341,0.125641,1,0.319444,1,0.680556,0.484211,0.174334,5.736111,0.005309
342,23,0,48,342,0.123077,1,0.323944,1,0.676056,0.489362,0.171913,5.816901,0.009856
343,23,0,47,343,0.120513,1,0.328571,1,0.671429,0.494624,0.169492,5.9,0.009924
344,23,0,46,344,0.117949,1,0.333333,1,0.666667,0.5,0.16707,5.985507,0.010563
345,23,0,45,345,0.115385,1,0.338235,1,0.661765,0.505495,0.164649,6.073529,0.011236
346,23,0,44,346,0.112821,1,0.343284,1,0.656716,0.511111,0.162228,6.164179,0.012438
347,23,0,43,347,0.110256,1,0.348485,1,0.651515,0.516854,0.159806,6.257576,0.016115
348,23,0,42,348,0.107692,1,0.353846,1,0.646154,0.522727,0.157385,6.353846,0.016201
349,23,0,41,349,0.105128,1,0.359375,1,0.640625,0.528736,0.154964,6.453125,0.016388
350,23,0,40,350,0.102564,1,0.365079,1,0.634921,0.534884,0.152542,6.555556,0.016623
351,23,0,39,351,0.1,1,0.370968,1,0.629032,0.541176,0.150121,6.66129,0.021937
352,23,0,38,352,0.097436,1,0.377049,1,0.622951,0.547619,0.1477,6.770492,0.023773
353,23,0,37,353,0.094872,1,0.383333,1,0.616667,0.554217,0.145278,6.883333,0.02393
354,23,0,36,354,0.092308,1,0.389831,1,0.610169,0.560976,0.142857,7,0.02431
355,23,0,35,355,0.089744,1,0.396552,1,0.603448,0.567901,0.140436,7.12069,0.025638
356,23,0,34,356,0.087179,1,0.403509,1,0.596491,0.575,0.138015,7.245614,0.026681
357,23,0,33,357,0.084615,1,0.410714,1,0.589286,0.582278,0.135593,7.375,0.028928
358,23,0,32,358,0.082051,1,0.418182,1,0.581818,0.589744,0.133172,7.509091,0.035093
359,23,0,31,359,0.079487,1,0.425926,1,0.574074,0.597403,0.130751,7.648148,0.035989
360,23,0,30,360,0.076923,1,0.433962,1,0.566038,0.605263,0.128329,7.792453,0.03643
361,23,0,29,361,0.074359,1,0.442308,1,0.557692,0.613333,0.125908,7.942308,0.039584
362,22,1,29,361,0.074359,0.956522,0.431373,0.956522,0.568627,0.594595,0.123487,7.745951,0.042405
363,22,1,28,362,0.071795,0.956522,0.44,0.956522,0.56,0.60274,0.121065,7.90087,0.045432
364,22,1,27,363,0.069231,0.956522,0.44898,0.956522,0.55102,0.611111,0.118644,8.062112,0.050717
365,22,1,26,364,0.066667,0.956522,0.458333,0.956522,0.541667,0.619718,0.116223,8.230072,0.051001
366,22,1,25,365,0.064103,0.956522,0.468085,0.956522,0.531915,0.628571,0.113801,8.40518,0.051903
367,22,1,24,366,0.061538,0.956522,0.478261,0.956522,0.521739,0.637681,0.11138,8.587902,0.054094
368,22,1,23,367,0.058974,0.956522,0.488889,0.956522,0.511111,0.647059,0.108959,8.778744,0.056553
369,22,1,22,368,0.05641,0.956522,0.5,0.956522,0.5,0.656716,0.106538,8.978261,0.060022
370,22,1,21,369,0.053846,0.956522,0.511628,0.956522,0.488372,0.666667,0.104116,9.187058,0.064178
371,22,1,20,370,0.051282,0.956522,0.52381,0.956522,0.47619,0.676923,0.101695,9.405797,0.071559
372,22,1,19,371,0.048718,0.956522,0.536585,0.956522,0.463415,0.6875,0.099274,9.635207,0.071952
373,22,1,18,372,0.046154,0.956522,0.55,0.956522,0.45,0.698413,0.096852,9.876087,0.075103
374,22,1,17,373,0.04359,0.956522,0.564103,0.956522,0.435897,0.709677,0.094431,10.12932,0.094119
375,22,1,16,374,0.041026,0.956522,0.578947,0.956522,0.421053,0.721311,0.09201,10.395881,0.098237
376,22,1,15,375,0.038462,0.956522,0.594595,0.956522,0.405405,0.733333,0.089588,10.676851,0.111041
377,22,1,14,376,0.035897,0.956522,0.611111,0.956522,0.388889,0.745763,0.087167,10.97343,0.127297
378,22,1,13,377,0.033333,0.956522,0.628571,0.956522,0.371429,0.758621,0.084746,11.286957,0.133058
379,22,1,12,378,0.030769,0.956522,0.647059,0.956522,0.352941,0.77193,0.082324,11.618926,0.155347
380,22,1,11,379,0.028205,0.956522,0.666667,0.956522,0.333333,0.785714,0.079903,11.971014,0.184558
381,22,1,10,380,0.025641,0.956522,0.6875,0.956522,0.3125,0.8,0.077482,12.345109,0.190139
382,22,1,9,381,0.023077,0.956522,0.709677,0.956522,0.290323,0.814815,0.075061,12.743338,0.328958
383,22,1,8,382,0.020513,0.956522,0.733333,0.956522,0.266667,0.830189,0.072639,13.168116,0.330152
384,21,2,8,382,0.020513,0.913043,0.724138,0.913043,0.275862,0.807692,0.070218,13.002999,0.358054
385,20,3,8,382,0.020513,0.869565,0.714286,0.869565,0.285714,0.784314,0.067797,12.826087,0.400196
386,20,3,7,383,0.017949,0.869565,0.740741,0.869565,0.259259,0.8,0.065375,13.301127,0.485921
387,19,4,7,383,0.017949,0.826087,0.730769,0.826087,0.269231,0.77551,0.062954,13.122074,0.492958
388,18,5,7,383,0.017949,0.782609,0.72,0.782609,0.28,0.75,0.060533,12.928696,0.494384
389,17,6,7,383,0.017949,0.73913,0.708333,0.73913,0.291667,0.723404,0.058111,12.719203,0.509466
390,16,7,7,383,0.017949,0.695652,0.695652,0.695652,0.304348,0.695652,0.05569,12.491493,0.537892
391,16,7,6,384,0.015385,0.695652,0.727273,0.695652,0.272727,0.711111,0.053269,13.059289,0.543646
392,16,7,5,385,0.012821,0.695652,0.761905,0.695652,0.238095,0.727273,0.050847,13.681159,0.557319
393,16,7,4,386,0.010256,0.695652,0.8,0.695652,0.2,0.744186,0.048426,14.365217,0.572317
394,16,7,3,387,0.007692,0.695652,0.842105,0.695652,0.157895,0.761905,0.046005,15.121281,0.575627
395,15,8,3,387,0.007692,0.652174,0.833333,0.652174,0.166667,0.731707,0.043584,14.963768,0.703646
396,14,9,3,387,0.007692,0.608696,0.823529,0.608696,0.176471,0.7,0.041162,?,0.733516
397,13,10,3,387,0.007692,0.565217,0.8125,0.565217,0.1875,0.666667,0.038741,?,0.787236
398,12,11,3,387,0.007692,0.521739,0.8,0.521739,0.2,0.631579,0.03632,?,0.788135
399,11,12,3,387,0.007692,0.478261,0.785714,0.478261,0.214286,0.594595,0.033898,?,0.845334
400,10,13,3,387,0.007692,0.434783,0.769231,0.434783,0.230769,0.555556,0.031477,?,0.876552
401,9,14,3,387,0.007692,0.391304,0.75,0.391304,0.25,0.514286,0.029056,?,0.880417
402,9,14,2,388,0.005128,0.391304,0.818182,0.391304,0.181818,0.529412,0.026634,?,0.88917
403,8,15,2,388,0.005128,0.347826,0.8,0.347826,0.2,0.484848,0.024213,?,0.891011
404,7,16,2,388,0.005128,0.304348,0.777778,0.304348,0.222222,0.4375,0.021792,?,0.901221
405,6,17,2,388,0.005128,0.26087,0.75,0.26087,0.25,0.387097,0.01937,?,0.916838
406,5,18,2,388,0.005128,0.217391,0.714286,0.217391,0.285714,0.333333,0.016949,?,0.950647
407,4,19,2,388,0.005128,0.173913,0.666667,0.173913,0.333333,0.275862,0.014528,?,0.96184
408,3,20,2,388,0.005128,0.130435,0.6,0.130435,0.4,0.214286,0.012107,?,0.980758
409,3,20,1,389,0.002564,0.130435,0.75,0.130435,0.25,0.222222,0.009685,?,0.984998
410,2,21,1,389,0.002564,0.086957,0.666667,0.086957,0.333333,0.153846,0.007264,?,0.996642
411,1,22,1,389,0.002564,0.043478,0.5,0.043478,0.5,0.08,0.004843,?,1
412,0,23,1,389,0.002564,0,0,0,1,?,0.002421,?,1
413,0,23,0,390,0,0,?,0,?,?,0,?,1.00001